%YAML 1.1
%TAG !u! tag:unity3d.com,2011:
--- !u!29 &1
OcclusionCullingSettings:
  m_ObjectHideFlags: 0
  serializedVersion: 2
  m_OcclusionBakeSettings:
    smallestOccluder: 5
    smallestHole: 0.25
    backfaceThreshold: 100
  m_SceneGUID: 00000000000000000000000000000000
  m_OcclusionCullingData: {fileID: 0}
--- !u!104 &2
RenderSettings:
  m_ObjectHideFlags: 0
  serializedVersion: 8
  m_Fog: 0
  m_FogColor: {r: 0.5, g: 0.5, b: 0.5, a: 1}
  m_FogMode: 3
  m_FogDensity: 0.01
  m_LinearFogStart: 0
  m_LinearFogEnd: 300
  m_AmbientSkyColor: {r: 0.212, g: 0.227, b: 0.259, a: 1}
  m_AmbientEquatorColor: {r: 0.114, g: 0.125, b: 0.133, a: 1}
  m_AmbientGroundColor: {r: 0.047, g: 0.043, b: 0.035, a: 1}
  m_AmbientIntensity: 1
  m_AmbientMode: 0
  m_SubtractiveShadowColor: {r: 0.42, g: 0.478, b: 0.627, a: 1}
  m_SkyboxMaterial: {fileID: 10304, guid: 0000000000000000f000000000000000, type: 0}
  m_HaloStrength: 0.5
  m_FlareStrength: 1
  m_FlareFadeSpeed: 3
  m_HaloTexture: {fileID: 0}
  m_SpotCookie: {fileID: 10001, guid: 0000000000000000e000000000000000, type: 0}
  m_DefaultReflectionMode: 0
  m_DefaultReflectionResolution: 128
  m_ReflectionBounces: 1
  m_ReflectionIntensity: 1
  m_CustomReflection: {fileID: 0}
  m_Sun: {fileID: 0}
  m_IndirectSpecularColor: {r: 0.44657898, g: 0.4964133, b: 0.5748178, a: 1}
--- !u!157 &4
LightmapSettings:
  m_ObjectHideFlags: 0
  serializedVersion: 11
  m_GIWorkflowMode: 0
  m_GISettings:
    serializedVersion: 2
    m_BounceScale: 1
    m_IndirectOutputScale: 1
    m_AlbedoBoost: 1
    m_TemporalCoherenceThreshold: 1
    m_EnvironmentLightingMode: 0
    m_EnableBakedLightmaps: 1
    m_EnableRealtimeLightmaps: 1
  m_LightmapEditorSettings:
    serializedVersion: 9
    m_Resolution: 2
    m_BakeResolution: 40
    m_TextureWidth: 1024
    m_TextureHeight: 1024
    m_AO: 0
    m_AOMaxDistance: 1
    m_CompAOExponent: 0
    m_CompAOExponentDirect: 0
    m_Padding: 2
    m_LightmapParameters: {fileID: 0}
    m_LightmapsBakeMode: 1
    m_TextureCompression: 1
    m_FinalGather: 0
    m_FinalGatherFiltering: 1
    m_FinalGatherRayCount: 1024
    m_ReflectionCompression: 2
    m_MixedBakeMode: 1
    m_BakeBackend: 0
    m_PVRSampling: 1
    m_PVRDirectSampleCount: 32
    m_PVRSampleCount: 500
    m_PVRBounces: 2
    m_PVRFilterTypeDirect: 0
    m_PVRFilterTypeIndirect: 0
    m_PVRFilterTypeAO: 0
    m_PVRFilteringMode: 0
    m_PVRCulling: 1
    m_PVRFilteringGaussRadiusDirect: 1
    m_PVRFilteringGaussRadiusIndirect: 5
    m_PVRFilteringGaussRadiusAO: 2
    m_PVRFilteringAtrousPositionSigmaDirect: 0.5
    m_PVRFilteringAtrousPositionSigmaIndirect: 2
    m_PVRFilteringAtrousPositionSigmaAO: 1
    m_ShowResolutionOverlay: 1
  m_LightingDataAsset: {fileID: 0}
  m_UseShadowmask: 0
--- !u!196 &5
NavMeshSettings:
  serializedVersion: 2
  m_ObjectHideFlags: 0
  m_BuildSettings:
    serializedVersion: 2
    agentTypeID: 0
    agentRadius: 0.5
    agentHeight: 2
    agentSlope: 45
    agentClimb: 0.4
    ledgeDropHeight: 0
    maxJumpAcrossDistance: 0
    minRegionArea: 2
    manualCellSize: 0
    cellSize: 0.16666667
    manualTileSize: 0
    tileSize: 256
    accuratePlacement: 0
    debug:
      m_Flags: 0
  m_NavMeshData: {fileID: 0}
--- !u!1 &77724605
GameObject:
  m_ObjectHideFlags: 0
  m_PrefabParentObject: {fileID: 189768, guid: 084ccf207a3a8a04ab5fa4d0cb470c55, type: 2}
  m_PrefabInternal: {fileID: 2056280492}
  serializedVersion: 5
  m_Component:
  - component: {fileID: 2056280493}
  - component: {fileID: 77724607}
  - component: {fileID: 77724606}
  m_Layer: 0
  m_Name: Stone_3
  m_TagString: Untagged
  m_Icon: {fileID: 0}
  m_NavMeshLayer: 0
  m_StaticEditorFlags: 0
  m_IsActive: 1
--- !u!23 &77724606
MeshRenderer:
  m_ObjectHideFlags: 0
  m_PrefabParentObject: {fileID: 2324026, guid: 084ccf207a3a8a04ab5fa4d0cb470c55,
    type: 2}
  m_PrefabInternal: {fileID: 2056280492}
  m_GameObject: {fileID: 77724605}
  m_Enabled: 1
  m_CastShadows: 1
  m_ReceiveShadows: 1
  m_DynamicOccludee: 1
  m_MotionVectors: 1
  m_LightProbeUsage: 1
  m_ReflectionProbeUsage: 1
  m_Materials:
  - {fileID: 2100000, guid: a2c8ddb5ea433104a9639539ee9c2e51, type: 2}
  m_StaticBatchInfo:
    firstSubMesh: 0
    subMeshCount: 0
  m_StaticBatchRoot: {fileID: 0}
  m_ProbeAnchor: {fileID: 0}
  m_LightProbeVolumeOverride: {fileID: 0}
  m_ScaleInLightmap: 1
  m_PreserveUVs: 0
  m_IgnoreNormalsForChartDetection: 0
  m_ImportantGI: 0
  m_StitchLightmapSeams: 0
  m_SelectedEditorRenderState: 3
  m_MinimumChartSize: 4
  m_AutoUVMaxDistance: 0.5
  m_AutoUVMaxAngle: 89
  m_LightmapParameters: {fileID: 0}
  m_SortingLayerID: 0
  m_SortingLayer: 0
  m_SortingOrder: 0
--- !u!33 &77724607
MeshFilter:
  m_ObjectHideFlags: 0
  m_PrefabParentObject: {fileID: 3303066, guid: 084ccf207a3a8a04ab5fa4d0cb470c55,
    type: 2}
  m_PrefabInternal: {fileID: 2056280492}
  m_GameObject: {fileID: 77724605}
  m_Mesh: {fileID: 4300000, guid: f95d237e2f8b70740a94ce53107719d4, type: 3}
--- !u!1001 &106813218
Prefab:
  m_ObjectHideFlags: 0
  serializedVersion: 2
  m_Modification:
    m_TransformParent: {fileID: 589362926}
    m_Modifications:
    - target: {fileID: 467404, guid: d77236787a13ca14d86f434d4a4a4cb6, type: 2}
      propertyPath: m_LocalPosition.x
      value: 0
      objectReference: {fileID: 0}
    - target: {fileID: 467404, guid: d77236787a13ca14d86f434d4a4a4cb6, type: 2}
      propertyPath: m_LocalPosition.y
      value: 0
      objectReference: {fileID: 0}
    - target: {fileID: 467404, guid: d77236787a13ca14d86f434d4a4a4cb6, type: 2}
      propertyPath: m_LocalPosition.z
      value: -2.05999994
      objectReference: {fileID: 0}
    - target: {fileID: 467404, guid: d77236787a13ca14d86f434d4a4a4cb6, type: 2}
      propertyPath: m_LocalRotation.x
      value: 0
      objectReference: {fileID: 0}
    - target: {fileID: 467404, guid: d77236787a13ca14d86f434d4a4a4cb6, type: 2}
      propertyPath: m_LocalRotation.y
      value: 0
      objectReference: {fileID: 0}
    - target: {fileID: 467404, guid: d77236787a13ca14d86f434d4a4a4cb6, type: 2}
      propertyPath: m_LocalRotation.z
      value: 0
      objectReference: {fileID: 0}
    - target: {fileID: 467404, guid: d77236787a13ca14d86f434d4a4a4cb6, type: 2}
      propertyPath: m_LocalRotation.w
      value: 1
      objectReference: {fileID: 0}
    - target: {fileID: 467404, guid: d77236787a13ca14d86f434d4a4a4cb6, type: 2}
      propertyPath: m_RootOrder
      value: 9
      objectReference: {fileID: 0}
    m_RemovedComponents: []
  m_ParentPrefab: {fileID: 100100000, guid: d77236787a13ca14d86f434d4a4a4cb6, type: 2}
  m_RootGameObject: {fileID: 759123245}
  m_IsPrefabParent: 0
--- !u!4 &106813219
Transform:
  m_ObjectHideFlags: 0
  m_PrefabParentObject: {fileID: 467404, guid: d77236787a13ca14d86f434d4a4a4cb6, type: 2}
  m_PrefabInternal: {fileID: 106813218}
  m_GameObject: {fileID: 759123245}
  m_LocalRotation: {x: 0, y: 0, z: 0, w: 1}
  m_LocalPosition: {x: 0, y: 0, z: -2.06}
  m_LocalScale: {x: 1, y: 1, z: 1}
  m_Children: []
  m_Father: {fileID: 589362926}
  m_RootOrder: 9
  m_LocalEulerAnglesHint: {x: 0, y: 0, z: 0}
--- !u!1001 &113133373
Prefab:
  m_ObjectHideFlags: 0
  serializedVersion: 2
  m_Modification:
    m_TransformParent: {fileID: 589362926}
    m_Modifications:
    - target: {fileID: 412670, guid: 85d0dccb426028947bcac0bf4729cb6c, type: 2}
      propertyPath: m_LocalPosition.x
      value: 0
      objectReference: {fileID: 0}
    - target: {fileID: 412670, guid: 85d0dccb426028947bcac0bf4729cb6c, type: 2}
      propertyPath: m_LocalPosition.y
      value: .550000012
      objectReference: {fileID: 0}
    - target: {fileID: 412670, guid: 85d0dccb426028947bcac0bf4729cb6c, type: 2}
      propertyPath: m_LocalPosition.z
      value: 26.1000004
      objectReference: {fileID: 0}
    - target: {fileID: 412670, guid: 85d0dccb426028947bcac0bf4729cb6c, type: 2}
      propertyPath: m_LocalRotation.x
      value: 0
      objectReference: {fileID: 0}
    - target: {fileID: 412670, guid: 85d0dccb426028947bcac0bf4729cb6c, type: 2}
      propertyPath: m_LocalRotation.y
      value: 0
      objectReference: {fileID: 0}
    - target: {fileID: 412670, guid: 85d0dccb426028947bcac0bf4729cb6c, type: 2}
      propertyPath: m_LocalRotation.z
      value: 0
      objectReference: {fileID: 0}
    - target: {fileID: 412670, guid: 85d0dccb426028947bcac0bf4729cb6c, type: 2}
      propertyPath: m_LocalRotation.w
      value: 1
      objectReference: {fileID: 0}
    - target: {fileID: 412670, guid: 85d0dccb426028947bcac0bf4729cb6c, type: 2}
      propertyPath: m_RootOrder
      value: 7
      objectReference: {fileID: 0}
    m_RemovedComponents: []
  m_ParentPrefab: {fileID: 100100000, guid: 85d0dccb426028947bcac0bf4729cb6c, type: 2}
  m_RootGameObject: {fileID: 308518645}
  m_IsPrefabParent: 0
--- !u!4 &113133374
Transform:
  m_ObjectHideFlags: 0
  m_PrefabParentObject: {fileID: 412670, guid: 85d0dccb426028947bcac0bf4729cb6c, type: 2}
  m_PrefabInternal: {fileID: 113133373}
  m_GameObject: {fileID: 308518645}
  m_LocalRotation: {x: 0, y: 0, z: 0, w: 1}
  m_LocalPosition: {x: 0, y: 0.55, z: 26.1}
  m_LocalScale: {x: 1, y: 1, z: 1}
  m_Children: []
  m_Father: {fileID: 589362926}
  m_RootOrder: 7
  m_LocalEulerAnglesHint: {x: 0, y: 0, z: 0}
--- !u!1001 &172088828
Prefab:
  m_ObjectHideFlags: 0
  serializedVersion: 2
  m_Modification:
    m_TransformParent: {fileID: 589362926}
    m_Modifications:
    - target: {fileID: 422694, guid: 29974a951b75ba64d85cd76ae1e03ede, type: 2}
      propertyPath: m_LocalPosition.x
      value: 0
      objectReference: {fileID: 0}
    - target: {fileID: 422694, guid: 29974a951b75ba64d85cd76ae1e03ede, type: 2}
      propertyPath: m_LocalPosition.y
      value: 0
      objectReference: {fileID: 0}
    - target: {fileID: 422694, guid: 29974a951b75ba64d85cd76ae1e03ede, type: 2}
      propertyPath: m_LocalPosition.z
      value: 17.4300003
      objectReference: {fileID: 0}
    - target: {fileID: 422694, guid: 29974a951b75ba64d85cd76ae1e03ede, type: 2}
      propertyPath: m_LocalRotation.x
      value: 0
      objectReference: {fileID: 0}
    - target: {fileID: 422694, guid: 29974a951b75ba64d85cd76ae1e03ede, type: 2}
      propertyPath: m_LocalRotation.y
      value: 0
      objectReference: {fileID: 0}
    - target: {fileID: 422694, guid: 29974a951b75ba64d85cd76ae1e03ede, type: 2}
      propertyPath: m_LocalRotation.z
      value: 0
      objectReference: {fileID: 0}
    - target: {fileID: 422694, guid: 29974a951b75ba64d85cd76ae1e03ede, type: 2}
      propertyPath: m_LocalRotation.w
      value: 1
      objectReference: {fileID: 0}
    - target: {fileID: 422694, guid: 29974a951b75ba64d85cd76ae1e03ede, type: 2}
      propertyPath: m_RootOrder
      value: 19
      objectReference: {fileID: 0}
    m_RemovedComponents: []
  m_ParentPrefab: {fileID: 100100000, guid: 29974a951b75ba64d85cd76ae1e03ede, type: 2}
  m_RootGameObject: {fileID: 1089804702}
  m_IsPrefabParent: 0
--- !u!4 &172088829
Transform:
  m_ObjectHideFlags: 0
  m_PrefabParentObject: {fileID: 422694, guid: 29974a951b75ba64d85cd76ae1e03ede, type: 2}
  m_PrefabInternal: {fileID: 172088828}
  m_GameObject: {fileID: 1089804702}
  m_LocalRotation: {x: 0, y: 0, z: 0, w: 1}
  m_LocalPosition: {x: 0, y: 0, z: 17.43}
  m_LocalScale: {x: 1, y: 1, z: 1}
  m_Children: []
  m_Father: {fileID: 589362926}
  m_RootOrder: 19
  m_LocalEulerAnglesHint: {x: 0, y: 0, z: 0}
--- !u!1 &206207192
GameObject:
  m_ObjectHideFlags: 0
  m_PrefabParentObject: {fileID: 0}
  m_PrefabInternal: {fileID: 1425967428}
  serializedVersion: 5
  m_Component:
  - component: {fileID: 1425967429}
  m_Layer: 0
  m_Name: Missing Prefab (Dummy)
  m_TagString: Untagged
  m_Icon: {fileID: 0}
  m_NavMeshLayer: 0
  m_StaticEditorFlags: 0
  m_IsActive: 1
--- !u!1001 &270778041
Prefab:
  m_ObjectHideFlags: 0
  serializedVersion: 2
  m_Modification:
    m_TransformParent: {fileID: 589362926}
    m_Modifications:
    - target: {fileID: 474212, guid: c8f241d1151c5a14dbac88fd4bea1d93, type: 2}
      propertyPath: m_LocalPosition.x
      value: 0
      objectReference: {fileID: 0}
    - target: {fileID: 474212, guid: c8f241d1151c5a14dbac88fd4bea1d93, type: 2}
      propertyPath: m_LocalPosition.y
      value: 0
      objectReference: {fileID: 0}
    - target: {fileID: 474212, guid: c8f241d1151c5a14dbac88fd4bea1d93, type: 2}
      propertyPath: m_LocalPosition.z
      value: -16.5200005
      objectReference: {fileID: 0}
    - target: {fileID: 474212, guid: c8f241d1151c5a14dbac88fd4bea1d93, type: 2}
      propertyPath: m_LocalRotation.x
      value: 0
      objectReference: {fileID: 0}
    - target: {fileID: 474212, guid: c8f241d1151c5a14dbac88fd4bea1d93, type: 2}
      propertyPath: m_LocalRotation.y
      value: 0
      objectReference: {fileID: 0}
    - target: {fileID: 474212, guid: c8f241d1151c5a14dbac88fd4bea1d93, type: 2}
      propertyPath: m_LocalRotation.z
      value: 0
      objectReference: {fileID: 0}
    - target: {fileID: 474212, guid: c8f241d1151c5a14dbac88fd4bea1d93, type: 2}
      propertyPath: m_LocalRotation.w
      value: 1
      objectReference: {fileID: 0}
    - target: {fileID: 474212, guid: c8f241d1151c5a14dbac88fd4bea1d93, type: 2}
      propertyPath: m_RootOrder
      value: 1
      objectReference: {fileID: 0}
    m_RemovedComponents: []
  m_ParentPrefab: {fileID: 100100000, guid: c8f241d1151c5a14dbac88fd4bea1d93, type: 2}
  m_RootGameObject: {fileID: 754969276}
  m_IsPrefabParent: 0
--- !u!4 &270778042
Transform:
  m_ObjectHideFlags: 0
  m_PrefabParentObject: {fileID: 474212, guid: c8f241d1151c5a14dbac88fd4bea1d93, type: 2}
  m_PrefabInternal: {fileID: 270778041}
  m_GameObject: {fileID: 754969276}
  m_LocalRotation: {x: 0, y: 0, z: 0, w: 1}
  m_LocalPosition: {x: 0, y: 0, z: -16.52}
  m_LocalScale: {x: 1, y: 1, z: 1}
  m_Children: []
  m_Father: {fileID: 589362926}
  m_RootOrder: 1
  m_LocalEulerAnglesHint: {x: 0, y: 0, z: 0}
--- !u!1 &308518645
GameObject:
  m_ObjectHideFlags: 0
  m_PrefabParentObject: {fileID: 146036, guid: 85d0dccb426028947bcac0bf4729cb6c, type: 2}
  m_PrefabInternal: {fileID: 113133373}
  serializedVersion: 5
  m_Component:
  - component: {fileID: 113133374}
  - component: {fileID: 308518647}
  - component: {fileID: 308518646}
  m_Layer: 0
  m_Name: Shrub_18
  m_TagString: Untagged
  m_Icon: {fileID: 0}
  m_NavMeshLayer: 0
  m_StaticEditorFlags: 0
  m_IsActive: 1
--- !u!23 &308518646
MeshRenderer:
  m_ObjectHideFlags: 0
  m_PrefabParentObject: {fileID: 2377164, guid: 85d0dccb426028947bcac0bf4729cb6c,
    type: 2}
  m_PrefabInternal: {fileID: 113133373}
  m_GameObject: {fileID: 308518645}
  m_Enabled: 1
  m_CastShadows: 1
  m_ReceiveShadows: 1
  m_DynamicOccludee: 1
  m_MotionVectors: 1
  m_LightProbeUsage: 1
  m_ReflectionProbeUsage: 1
  m_Materials:
  - {fileID: 2100000, guid: 05244cd1770371546991e982a45ce03e, type: 2}
  m_StaticBatchInfo:
    firstSubMesh: 0
    subMeshCount: 0
  m_StaticBatchRoot: {fileID: 0}
  m_ProbeAnchor: {fileID: 0}
  m_LightProbeVolumeOverride: {fileID: 0}
  m_ScaleInLightmap: 1
  m_PreserveUVs: 0
  m_IgnoreNormalsForChartDetection: 0
  m_ImportantGI: 0
  m_StitchLightmapSeams: 0
  m_SelectedEditorRenderState: 3
  m_MinimumChartSize: 4
  m_AutoUVMaxDistance: 0.5
  m_AutoUVMaxAngle: 89
  m_LightmapParameters: {fileID: 0}
  m_SortingLayerID: 0
  m_SortingLayer: 0
  m_SortingOrder: 0
--- !u!33 &308518647
MeshFilter:
  m_ObjectHideFlags: 0
  m_PrefabParentObject: {fileID: 3353634, guid: 85d0dccb426028947bcac0bf4729cb6c,
    type: 2}
  m_PrefabInternal: {fileID: 113133373}
  m_GameObject: {fileID: 308518645}
  m_Mesh: {fileID: 4300000, guid: 16a08ea23a2512b449006ebb1112b57f, type: 3}
--- !u!1001 &312239387
Prefab:
  m_ObjectHideFlags: 0
  serializedVersion: 2
  m_Modification:
    m_TransformParent: {fileID: 589362926}
    m_Modifications:
    - target: {fileID: 414194, guid: 61c514000f4738f4ca05258453cb351e, type: 2}
      propertyPath: m_LocalPosition.x
      value: 0
      objectReference: {fileID: 0}
    - target: {fileID: 414194, guid: 61c514000f4738f4ca05258453cb351e, type: 2}
      propertyPath: m_LocalPosition.y
      value: 0
      objectReference: {fileID: 0}
    - target: {fileID: 414194, guid: 61c514000f4738f4ca05258453cb351e, type: 2}
      propertyPath: m_LocalPosition.z
      value: 21.7800007
      objectReference: {fileID: 0}
    - target: {fileID: 414194, guid: 61c514000f4738f4ca05258453cb351e, type: 2}
      propertyPath: m_LocalRotation.x
      value: 0
      objectReference: {fileID: 0}
    - target: {fileID: 414194, guid: 61c514000f4738f4ca05258453cb351e, type: 2}
      propertyPath: m_LocalRotation.y
      value: 0
      objectReference: {fileID: 0}
    - target: {fileID: 414194, guid: 61c514000f4738f4ca05258453cb351e, type: 2}
      propertyPath: m_LocalRotation.z
      value: 0
      objectReference: {fileID: 0}
    - target: {fileID: 414194, guid: 61c514000f4738f4ca05258453cb351e, type: 2}
      propertyPath: m_LocalRotation.w
      value: 1
      objectReference: {fileID: 0}
    - target: {fileID: 414194, guid: 61c514000f4738f4ca05258453cb351e, type: 2}
      propertyPath: m_RootOrder
      value: 5
      objectReference: {fileID: 0}
    m_RemovedComponents: []
  m_ParentPrefab: {fileID: 100100000, guid: 61c514000f4738f4ca05258453cb351e, type: 2}
  m_RootGameObject: {fileID: 1394645025}
  m_IsPrefabParent: 0
--- !u!4 &312239388
Transform:
  m_ObjectHideFlags: 0
  m_PrefabParentObject: {fileID: 414194, guid: 61c514000f4738f4ca05258453cb351e, type: 2}
  m_PrefabInternal: {fileID: 312239387}
  m_GameObject: {fileID: 1394645025}
  m_LocalRotation: {x: 0, y: 0, z: 0, w: 1}
  m_LocalPosition: {x: 0, y: 0, z: 21.78}
  m_LocalScale: {x: 1, y: 1, z: 1}
  m_Children: []
  m_Father: {fileID: 589362926}
  m_RootOrder: 5
  m_LocalEulerAnglesHint: {x: 0, y: 0, z: 0}
--- !u!1001 &391851977
Prefab:
  m_ObjectHideFlags: 0
  serializedVersion: 2
  m_Modification:
    m_TransformParent: {fileID: 589362926}
    m_Modifications:
    - target: {fileID: 473510, guid: d59133509f424e849b6d63b76ed0cad2, type: 2}
      propertyPath: m_LocalPosition.x
      value: 0
      objectReference: {fileID: 0}
    - target: {fileID: 473510, guid: d59133509f424e849b6d63b76ed0cad2, type: 2}
      propertyPath: m_LocalPosition.y
      value: 0
      objectReference: {fileID: 0}
    - target: {fileID: 473510, guid: d59133509f424e849b6d63b76ed0cad2, type: 2}
      propertyPath: m_LocalPosition.z
      value: 2.68000007
      objectReference: {fileID: 0}
    - target: {fileID: 473510, guid: d59133509f424e849b6d63b76ed0cad2, type: 2}
      propertyPath: m_LocalRotation.x
      value: 0
      objectReference: {fileID: 0}
    - target: {fileID: 473510, guid: d59133509f424e849b6d63b76ed0cad2, type: 2}
      propertyPath: m_LocalRotation.y
      value: 0
      objectReference: {fileID: 0}
    - target: {fileID: 473510, guid: d59133509f424e849b6d63b76ed0cad2, type: 2}
      propertyPath: m_LocalRotation.z
      value: 0
      objectReference: {fileID: 0}
    - target: {fileID: 473510, guid: d59133509f424e849b6d63b76ed0cad2, type: 2}
      propertyPath: m_LocalRotation.w
      value: 1
      objectReference: {fileID: 0}
    - target: {fileID: 473510, guid: d59133509f424e849b6d63b76ed0cad2, type: 2}
      propertyPath: m_RootOrder
      value: 14
      objectReference: {fileID: 0}
    m_RemovedComponents: []
  m_ParentPrefab: {fileID: 100100000, guid: d59133509f424e849b6d63b76ed0cad2, type: 2}
  m_RootGameObject: {fileID: 825230865}
  m_IsPrefabParent: 0
--- !u!4 &391851978
Transform:
  m_ObjectHideFlags: 0
  m_PrefabParentObject: {fileID: 473510, guid: d59133509f424e849b6d63b76ed0cad2, type: 2}
  m_PrefabInternal: {fileID: 391851977}
  m_GameObject: {fileID: 825230865}
  m_LocalRotation: {x: 0, y: 0, z: 0, w: 1}
  m_LocalPosition: {x: 0, y: 0, z: 2.68}
  m_LocalScale: {x: 1, y: 1, z: 1}
  m_Children: []
  m_Father: {fileID: 589362926}
  m_RootOrder: 14
  m_LocalEulerAnglesHint: {x: 0, y: 0, z: 0}
--- !u!1001 &403079615
Prefab:
  m_ObjectHideFlags: 0
  serializedVersion: 2
  m_Modification:
    m_TransformParent: {fileID: 589362926}
    m_Modifications:
    - target: {fileID: 480706, guid: f80320821301293469fd7263b5c778a3, type: 2}
      propertyPath: m_LocalPosition.x
      value: 0
      objectReference: {fileID: 0}
    - target: {fileID: 480706, guid: f80320821301293469fd7263b5c778a3, type: 2}
      propertyPath: m_LocalPosition.y
      value: 0
      objectReference: {fileID: 0}
    - target: {fileID: 480706, guid: f80320821301293469fd7263b5c778a3, type: 2}
      propertyPath: m_LocalPosition.z
      value: 38.0900002
      objectReference: {fileID: 0}
    - target: {fileID: 480706, guid: f80320821301293469fd7263b5c778a3, type: 2}
      propertyPath: m_LocalRotation.x
      value: 0
      objectReference: {fileID: 0}
    - target: {fileID: 480706, guid: f80320821301293469fd7263b5c778a3, type: 2}
      propertyPath: m_LocalRotation.y
      value: 0
      objectReference: {fileID: 0}
    - target: {fileID: 480706, guid: f80320821301293469fd7263b5c778a3, type: 2}
      propertyPath: m_LocalRotation.z
      value: 0
      objectReference: {fileID: 0}
    - target: {fileID: 480706, guid: f80320821301293469fd7263b5c778a3, type: 2}
      propertyPath: m_LocalRotation.w
      value: 1
      objectReference: {fileID: 0}
    - target: {fileID: 480706, guid: f80320821301293469fd7263b5c778a3, type: 2}
      propertyPath: m_RootOrder
      value: 13
      objectReference: {fileID: 0}
    m_RemovedComponents: []
  m_ParentPrefab: {fileID: 100100000, guid: f80320821301293469fd7263b5c778a3, type: 2}
  m_RootGameObject: {fileID: 1851991127}
  m_IsPrefabParent: 0
--- !u!4 &403079616
Transform:
  m_ObjectHideFlags: 0
  m_PrefabParentObject: {fileID: 480706, guid: f80320821301293469fd7263b5c778a3, type: 2}
  m_PrefabInternal: {fileID: 403079615}
  m_GameObject: {fileID: 1851991127}
  m_LocalRotation: {x: 0, y: 0, z: 0, w: 1}
  m_LocalPosition: {x: 0, y: 0, z: 38.09}
  m_LocalScale: {x: 1, y: 1, z: 1}
  m_Children: []
  m_Father: {fileID: 589362926}
  m_RootOrder: 13
  m_LocalEulerAnglesHint: {x: 0, y: 0, z: 0}
--- !u!1 &419868354
GameObject:
  m_ObjectHideFlags: 0
  m_PrefabParentObject: {fileID: 176184, guid: 7b008d3317859a847b83f2613744530b, type: 2}
  m_PrefabInternal: {fileID: 1379021362}
  serializedVersion: 5
  m_Component:
  - component: {fileID: 1379021363}
  - component: {fileID: 419868356}
  - component: {fileID: 419868355}
  m_Layer: 0
  m_Name: Apple
  m_TagString: Untagged
  m_Icon: {fileID: 0}
  m_NavMeshLayer: 0
  m_StaticEditorFlags: 0
  m_IsActive: 1
--- !u!23 &419868355
MeshRenderer:
  m_ObjectHideFlags: 0
  m_PrefabParentObject: {fileID: 2307276, guid: 7b008d3317859a847b83f2613744530b,
    type: 2}
  m_PrefabInternal: {fileID: 1379021362}
  m_GameObject: {fileID: 419868354}
  m_Enabled: 1
  m_CastShadows: 1
  m_ReceiveShadows: 1
  m_DynamicOccludee: 1
  m_MotionVectors: 1
  m_LightProbeUsage: 1
  m_ReflectionProbeUsage: 1
  m_Materials:
  - {fileID: 2100000, guid: 05244cd1770371546991e982a45ce03e, type: 2}
  m_StaticBatchInfo:
    firstSubMesh: 0
    subMeshCount: 0
  m_StaticBatchRoot: {fileID: 0}
  m_ProbeAnchor: {fileID: 0}
  m_LightProbeVolumeOverride: {fileID: 0}
  m_ScaleInLightmap: 1
  m_PreserveUVs: 0
  m_IgnoreNormalsForChartDetection: 0
  m_ImportantGI: 0
  m_StitchLightmapSeams: 0
  m_SelectedEditorRenderState: 3
  m_MinimumChartSize: 4
  m_AutoUVMaxDistance: 0.5
  m_AutoUVMaxAngle: 89
  m_LightmapParameters: {fileID: 0}
  m_SortingLayerID: 0
  m_SortingLayer: 0
  m_SortingOrder: 0
--- !u!33 &419868356
MeshFilter:
  m_ObjectHideFlags: 0
  m_PrefabParentObject: {fileID: 3355380, guid: 7b008d3317859a847b83f2613744530b,
    type: 2}
  m_PrefabInternal: {fileID: 1379021362}
  m_GameObject: {fileID: 419868354}
  m_Mesh: {fileID: 4300000, guid: c3686f0362ff5274f98a3f2baf781da8, type: 3}
--- !u!1001 &423877774
Prefab:
  m_ObjectHideFlags: 0
  serializedVersion: 2
  m_Modification:
    m_TransformParent: {fileID: 589362926}
    m_Modifications:
    - target: {fileID: 477202, guid: 87475ce363e4bcf40b5791256be68f7d, type: 2}
      propertyPath: m_LocalPosition.x
      value: 0
      objectReference: {fileID: 0}
    - target: {fileID: 477202, guid: 87475ce363e4bcf40b5791256be68f7d, type: 2}
      propertyPath: m_LocalPosition.y
      value: 0
      objectReference: {fileID: 0}
    - target: {fileID: 477202, guid: 87475ce363e4bcf40b5791256be68f7d, type: 2}
      propertyPath: m_LocalPosition.z
      value: -5.75
      objectReference: {fileID: 0}
    - target: {fileID: 477202, guid: 87475ce363e4bcf40b5791256be68f7d, type: 2}
      propertyPath: m_LocalRotation.x
      value: 0
      objectReference: {fileID: 0}
    - target: {fileID: 477202, guid: 87475ce363e4bcf40b5791256be68f7d, type: 2}
      propertyPath: m_LocalRotation.y
      value: 0
      objectReference: {fileID: 0}
    - target: {fileID: 477202, guid: 87475ce363e4bcf40b5791256be68f7d, type: 2}
      propertyPath: m_LocalRotation.z
      value: 0
      objectReference: {fileID: 0}
    - target: {fileID: 477202, guid: 87475ce363e4bcf40b5791256be68f7d, type: 2}
      propertyPath: m_LocalRotation.w
      value: 1
      objectReference: {fileID: 0}
    - target: {fileID: 477202, guid: 87475ce363e4bcf40b5791256be68f7d, type: 2}
      propertyPath: m_RootOrder
      value: 3
      objectReference: {fileID: 0}
    m_RemovedComponents: []
  m_ParentPrefab: {fileID: 100100000, guid: 87475ce363e4bcf40b5791256be68f7d, type: 2}
  m_RootGameObject: {fileID: 1891558877}
  m_IsPrefabParent: 0
--- !u!4 &423877775
Transform:
  m_ObjectHideFlags: 0
  m_PrefabParentObject: {fileID: 477202, guid: 87475ce363e4bcf40b5791256be68f7d, type: 2}
  m_PrefabInternal: {fileID: 423877774}
  m_GameObject: {fileID: 1891558877}
  m_LocalRotation: {x: 0, y: 0, z: 0, w: 1}
  m_LocalPosition: {x: 0, y: 0, z: -5.75}
  m_LocalScale: {x: 1, y: 1, z: 1}
  m_Children: []
  m_Father: {fileID: 589362926}
  m_RootOrder: 3
  m_LocalEulerAnglesHint: {x: 0, y: 0, z: 0}
--- !u!1001 &543553267
Prefab:
  m_ObjectHideFlags: 0
  serializedVersion: 2
  m_Modification:
    m_TransformParent: {fileID: 589362926}
    m_Modifications:
    - target: {fileID: 479642, guid: 7a9b18789a7a0674f90f08e84623d6d0, type: 2}
      propertyPath: m_LocalPosition.x
      value: 0
      objectReference: {fileID: 0}
    - target: {fileID: 479642, guid: 7a9b18789a7a0674f90f08e84623d6d0, type: 2}
      propertyPath: m_LocalPosition.y
      value: 1
      objectReference: {fileID: 0}
    - target: {fileID: 479642, guid: 7a9b18789a7a0674f90f08e84623d6d0, type: 2}
      propertyPath: m_LocalPosition.z
      value: -27.0799999
      objectReference: {fileID: 0}
    - target: {fileID: 479642, guid: 7a9b18789a7a0674f90f08e84623d6d0, type: 2}
      propertyPath: m_LocalRotation.x
      value: 0
      objectReference: {fileID: 0}
    - target: {fileID: 479642, guid: 7a9b18789a7a0674f90f08e84623d6d0, type: 2}
      propertyPath: m_LocalRotation.y
      value: 0
      objectReference: {fileID: 0}
    - target: {fileID: 479642, guid: 7a9b18789a7a0674f90f08e84623d6d0, type: 2}
      propertyPath: m_LocalRotation.z
      value: 0
      objectReference: {fileID: 0}
    - target: {fileID: 479642, guid: 7a9b18789a7a0674f90f08e84623d6d0, type: 2}
      propertyPath: m_LocalRotation.w
      value: 1
      objectReference: {fileID: 0}
    - target: {fileID: 479642, guid: 7a9b18789a7a0674f90f08e84623d6d0, type: 2}
      propertyPath: m_RootOrder
      value: 17
      objectReference: {fileID: 0}
    m_RemovedComponents: []
  m_ParentPrefab: {fileID: 100100000, guid: 7a9b18789a7a0674f90f08e84623d6d0, type: 2}
  m_RootGameObject: {fileID: 612006480}
  m_IsPrefabParent: 0
--- !u!4 &543553268
Transform:
  m_ObjectHideFlags: 0
  m_PrefabParentObject: {fileID: 479642, guid: 7a9b18789a7a0674f90f08e84623d6d0, type: 2}
  m_PrefabInternal: {fileID: 543553267}
  m_GameObject: {fileID: 612006480}
  m_LocalRotation: {x: 0, y: 0, z: 0, w: 1}
  m_LocalPosition: {x: 0, y: 1, z: -27.08}
  m_LocalScale: {x: 1, y: 1, z: 1}
  m_Children: []
  m_Father: {fileID: 589362926}
  m_RootOrder: 17
  m_LocalEulerAnglesHint: {x: 0, y: 0, z: 0}
--- !u!1 &589362925
GameObject:
  m_ObjectHideFlags: 0
  m_PrefabParentObject: {fileID: 0}
  m_PrefabInternal: {fileID: 0}
  serializedVersion: 5
  m_Component:
  - component: {fileID: 589362926}
  m_Layer: 0
  m_Name: AllPrefabs
  m_TagString: Untagged
  m_Icon: {fileID: 0}
  m_NavMeshLayer: 0
  m_StaticEditorFlags: 0
  m_IsActive: 1
--- !u!4 &589362926
Transform:
  m_ObjectHideFlags: 0
  m_PrefabParentObject: {fileID: 0}
  m_PrefabInternal: {fileID: 0}
  m_GameObject: {fileID: 589362925}
  m_LocalRotation: {x: 0, y: 0, z: 0, w: 1}
  m_LocalPosition: {x: -12.648808, y: 12.428877, z: -131.77621}
  m_LocalScale: {x: 1, y: 1, z: 1}
  m_Children:
  - {fileID: 2050287679}
  - {fileID: 270778042}
  - {fileID: 1634122548}
  - {fileID: 423877775}
  - {fileID: 1831922107}
  - {fileID: 312239388}
  - {fileID: 2056280493}
  - {fileID: 113133374}
  - {fileID: 712680752}
  - {fileID: 106813219}
  - {fileID: 1211538571}
  - {fileID: 2106915931}
  - {fileID: 940744531}
  - {fileID: 403079616}
  - {fileID: 391851978}
  - {fileID: 1347686427}
  - {fileID: 1679538471}
  - {fileID: 543553268}
  - {fileID: 1226956069}
  - {fileID: 172088829}
  - {fileID: 596311232}
  - {fileID: 2060615661}
  - {fileID: 1379021363}
  m_Father: {fileID: 0}
  m_RootOrder: 1
  m_LocalEulerAnglesHint: {x: 0, y: 0, z: 0}
--- !u!1001 &596311231
Prefab:
  m_ObjectHideFlags: 0
  serializedVersion: 2
  m_Modification:
    m_TransformParent: {fileID: 589362926}
    m_Modifications:
    - target: {fileID: 423924, guid: f89cb707cc080fe4f93109b17f751eb0, type: 2}
      propertyPath: m_LocalPosition.x
      value: 0
      objectReference: {fileID: 0}
    - target: {fileID: 423924, guid: f89cb707cc080fe4f93109b17f751eb0, type: 2}
      propertyPath: m_LocalPosition.y
      value: 0
      objectReference: {fileID: 0}
    - target: {fileID: 423924, guid: f89cb707cc080fe4f93109b17f751eb0, type: 2}
      propertyPath: m_LocalPosition.z
      value: 49.6399994
      objectReference: {fileID: 0}
    - target: {fileID: 423924, guid: f89cb707cc080fe4f93109b17f751eb0, type: 2}
      propertyPath: m_LocalRotation.x
      value: 0
      objectReference: {fileID: 0}
    - target: {fileID: 423924, guid: f89cb707cc080fe4f93109b17f751eb0, type: 2}
      propertyPath: m_LocalRotation.y
      value: 0
      objectReference: {fileID: 0}
    - target: {fileID: 423924, guid: f89cb707cc080fe4f93109b17f751eb0, type: 2}
      propertyPath: m_LocalRotation.z
      value: 0
      objectReference: {fileID: 0}
    - target: {fileID: 423924, guid: f89cb707cc080fe4f93109b17f751eb0, type: 2}
      propertyPath: m_LocalRotation.w
      value: 1
      objectReference: {fileID: 0}
    - target: {fileID: 423924, guid: f89cb707cc080fe4f93109b17f751eb0, type: 2}
      propertyPath: m_RootOrder
      value: 20
      objectReference: {fileID: 0}
    m_RemovedComponents: []
  m_ParentPrefab: {fileID: 100100000, guid: f89cb707cc080fe4f93109b17f751eb0, type: 2}
  m_RootGameObject: {fileID: 1244419737}
  m_IsPrefabParent: 0
--- !u!4 &596311232
Transform:
  m_ObjectHideFlags: 0
  m_PrefabParentObject: {fileID: 423924, guid: f89cb707cc080fe4f93109b17f751eb0, type: 2}
  m_PrefabInternal: {fileID: 596311231}
  m_GameObject: {fileID: 1244419737}
  m_LocalRotation: {x: 0, y: 0, z: 0, w: 1}
  m_LocalPosition: {x: 0, y: 0, z: 49.64}
  m_LocalScale: {x: 1, y: 1, z: 1}
  m_Children: []
  m_Father: {fileID: 589362926}
  m_RootOrder: 20
  m_LocalEulerAnglesHint: {x: 0, y: 0, z: 0}
--- !u!1 &606390808
GameObject:
  m_ObjectHideFlags: 0
  m_PrefabParentObject: {fileID: 0}
  m_PrefabInternal: {fileID: 0}
  serializedVersion: 5
  m_Component:
  - component: {fileID: 606390812}
  - component: {fileID: 606390811}
  - component: {fileID: 606390810}
  - component: {fileID: 606390809}
  m_Layer: 0
  m_Name: Plane
  m_TagString: Untagged
  m_Icon: {fileID: 0}
  m_NavMeshLayer: 0
  m_StaticEditorFlags: 0
  m_IsActive: 1
--- !u!23 &606390809
MeshRenderer:
  m_ObjectHideFlags: 0
  m_PrefabParentObject: {fileID: 0}
  m_PrefabInternal: {fileID: 0}
  m_GameObject: {fileID: 606390808}
  m_Enabled: 1
  m_CastShadows: 1
  m_ReceiveShadows: 1
  m_DynamicOccludee: 1
  m_MotionVectors: 1
  m_LightProbeUsage: 1
  m_ReflectionProbeUsage: 1
  m_Materials:
  - {fileID: 10303, guid: 0000000000000000f000000000000000, type: 0}
  m_StaticBatchInfo:
    firstSubMesh: 0
    subMeshCount: 0
  m_StaticBatchRoot: {fileID: 0}
  m_ProbeAnchor: {fileID: 0}
  m_LightProbeVolumeOverride: {fileID: 0}
  m_ScaleInLightmap: 1
  m_PreserveUVs: 1
  m_IgnoreNormalsForChartDetection: 0
  m_ImportantGI: 0
  m_StitchLightmapSeams: 0
  m_SelectedEditorRenderState: 3
  m_MinimumChartSize: 4
  m_AutoUVMaxDistance: 0.5
  m_AutoUVMaxAngle: 89
  m_LightmapParameters: {fileID: 0}
  m_SortingLayerID: 0
  m_SortingLayer: 0
  m_SortingOrder: 0
--- !u!64 &606390810
MeshCollider:
  m_ObjectHideFlags: 0
  m_PrefabParentObject: {fileID: 0}
  m_PrefabInternal: {fileID: 0}
  m_GameObject: {fileID: 606390808}
  m_Material: {fileID: 0}
  m_IsTrigger: 0
  m_Enabled: 1
  serializedVersion: 3
  m_Convex: 0
  m_CookingOptions: 14
  m_SkinWidth: 0.01
  m_Mesh: {fileID: 10209, guid: 0000000000000000e000000000000000, type: 0}
--- !u!33 &606390811
MeshFilter:
  m_ObjectHideFlags: 0
  m_PrefabParentObject: {fileID: 0}
  m_PrefabInternal: {fileID: 0}
  m_GameObject: {fileID: 606390808}
  m_Mesh: {fileID: 10209, guid: 0000000000000000e000000000000000, type: 0}
--- !u!4 &606390812
Transform:
  m_ObjectHideFlags: 0
  m_PrefabParentObject: {fileID: 0}
  m_PrefabInternal: {fileID: 0}
  m_GameObject: {fileID: 606390808}
  m_LocalRotation: {x: 0, y: 0, z: 0, w: 1}
  m_LocalPosition: {x: -13.8, y: 12.2, z: -126}
  m_LocalScale: {x: 4.8471556, y: 17.074286, z: 13.7960005}
  m_Children: []
  m_Father: {fileID: 0}
  m_RootOrder: 0
  m_LocalEulerAnglesHint: {x: 0, y: 0, z: 0}
--- !u!1 &612006480
GameObject:
  m_ObjectHideFlags: 0
  m_PrefabParentObject: {fileID: 130046, guid: 7a9b18789a7a0674f90f08e84623d6d0, type: 2}
  m_PrefabInternal: {fileID: 543553267}
  serializedVersion: 5
  m_Component:
  - component: {fileID: 543553268}
  - component: {fileID: 612006482}
  - component: {fileID: 612006481}
  m_Layer: 0
  m_Name: Cloud_3
  m_TagString: Untagged
  m_Icon: {fileID: 0}
  m_NavMeshLayer: 0
  m_StaticEditorFlags: 0
  m_IsActive: 1
--- !u!23 &612006481
MeshRenderer:
  m_ObjectHideFlags: 0
  m_PrefabParentObject: {fileID: 2399498, guid: 7a9b18789a7a0674f90f08e84623d6d0,
    type: 2}
  m_PrefabInternal: {fileID: 543553267}
  m_GameObject: {fileID: 612006480}
  m_Enabled: 1
  m_CastShadows: 1
  m_ReceiveShadows: 1
  m_DynamicOccludee: 1
  m_MotionVectors: 1
  m_LightProbeUsage: 1
  m_ReflectionProbeUsage: 1
  m_Materials:
  - {fileID: 2100000, guid: a2c8ddb5ea433104a9639539ee9c2e51, type: 2}
  m_StaticBatchInfo:
    firstSubMesh: 0
    subMeshCount: 0
  m_StaticBatchRoot: {fileID: 0}
  m_ProbeAnchor: {fileID: 0}
  m_LightProbeVolumeOverride: {fileID: 0}
  m_ScaleInLightmap: 1
  m_PreserveUVs: 0
  m_IgnoreNormalsForChartDetection: 0
  m_ImportantGI: 0
  m_StitchLightmapSeams: 0
  m_SelectedEditorRenderState: 3
  m_MinimumChartSize: 4
  m_AutoUVMaxDistance: 0.5
  m_AutoUVMaxAngle: 89
  m_LightmapParameters: {fileID: 0}
  m_SortingLayerID: 0
  m_SortingLayer: 0
  m_SortingOrder: 0
--- !u!33 &612006482
MeshFilter:
  m_ObjectHideFlags: 0
  m_PrefabParentObject: {fileID: 3364248, guid: 7a9b18789a7a0674f90f08e84623d6d0,
    type: 2}
  m_PrefabInternal: {fileID: 543553267}
  m_GameObject: {fileID: 612006480}
  m_Mesh: {fileID: 4300000, guid: 051ce6c669ebc7647b562ee9c32d2ef0, type: 3}
--- !u!1 &696221688
GameObject:
  m_ObjectHideFlags: 0
  m_PrefabParentObject: {fileID: 0}
  m_PrefabInternal: {fileID: 0}
  serializedVersion: 5
  m_Component:
  - component: {fileID: 696221693}
  - component: {fileID: 696221692}
  - component: {fileID: 696221691}
  - component: {fileID: 696221690}
  - component: {fileID: 696221689}
  m_Layer: 0
  m_Name: Main Camera
  m_TagString: MainCamera
  m_Icon: {fileID: 0}
  m_NavMeshLayer: 0
  m_StaticEditorFlags: 0
  m_IsActive: 1
--- !u!81 &696221689
AudioListener:
  m_ObjectHideFlags: 0
  m_PrefabParentObject: {fileID: 0}
  m_PrefabInternal: {fileID: 0}
  m_GameObject: {fileID: 696221688}
  m_Enabled: 1
--- !u!124 &696221690
Behaviour:
  m_ObjectHideFlags: 0
  m_PrefabParentObject: {fileID: 0}
  m_PrefabInternal: {fileID: 0}
  m_GameObject: {fileID: 696221688}
  m_Enabled: 1
--- !u!92 &696221691
Behaviour:
  m_ObjectHideFlags: 0
  m_PrefabParentObject: {fileID: 0}
  m_PrefabInternal: {fileID: 0}
  m_GameObject: {fileID: 696221688}
  m_Enabled: 1
--- !u!20 &696221692
Camera:
  m_ObjectHideFlags: 0
  m_PrefabParentObject: {fileID: 0}
  m_PrefabInternal: {fileID: 0}
  m_GameObject: {fileID: 696221688}
  m_Enabled: 1
  serializedVersion: 2
  m_ClearFlags: 1
  m_BackGroundColor: {r: 0.19215687, g: 0.3019608, b: 0.4745098, a: 0.019607844}
  m_NormalizedViewPortRect:
    serializedVersion: 2
    x: 0
    y: 0
    width: 1
    height: 1
  near clip plane: 0.3
  far clip plane: 1000
  field of view: 60
  orthographic: 0
  orthographic size: 5
  m_Depth: -1
  m_CullingMask:
    serializedVersion: 2
    m_Bits: 4294967295
  m_RenderingPath: -1
  m_TargetTexture: {fileID: 0}
  m_TargetDisplay: 0
  m_TargetEye: 3
  m_HDR: 0
  m_AllowMSAA: 1
  m_AllowDynamicResolution: 0
  m_ForceIntoRT: 0
  m_OcclusionCulling: 1
  m_StereoConvergence: 10
  m_StereoSeparation: 0.022
--- !u!4 &696221693
Transform:
  m_ObjectHideFlags: 0
  m_PrefabParentObject: {fileID: 0}
  m_PrefabInternal: {fileID: 0}
  m_GameObject: {fileID: 696221688}
  m_LocalRotation: {x: 0.16323385, y: 0.6880079, z: -0.16323388, w: 0.6880078}
  m_LocalPosition: {x: -56.24, y: 30.1, z: -120.9}
  m_LocalScale: {x: 1, y: 1, z: 1}
  m_Children: []
  m_Father: {fileID: 0}
  m_RootOrder: 2
  m_LocalEulerAnglesHint: {x: 0, y: 0, z: 0}
--- !u!1001 &712680751
Prefab:
  m_ObjectHideFlags: 0
  serializedVersion: 2
  m_Modification:
    m_TransformParent: {fileID: 589362926}
    m_Modifications:
    - target: {fileID: 437086, guid: 49b0362a631aa79468a77f04e9cdc298, type: 2}
      propertyPath: m_LocalPosition.x
      value: 0
      objectReference: {fileID: 0}
    - target: {fileID: 437086, guid: 49b0362a631aa79468a77f04e9cdc298, type: 2}
      propertyPath: m_LocalPosition.y
      value: 0
      objectReference: {fileID: 0}
    - target: {fileID: 437086, guid: 49b0362a631aa79468a77f04e9cdc298, type: 2}
      propertyPath: m_LocalPosition.z
      value: 12.8800001
      objectReference: {fileID: 0}
    - target: {fileID: 437086, guid: 49b0362a631aa79468a77f04e9cdc298, type: 2}
      propertyPath: m_LocalRotation.x
      value: 0
      objectReference: {fileID: 0}
    - target: {fileID: 437086, guid: 49b0362a631aa79468a77f04e9cdc298, type: 2}
      propertyPath: m_LocalRotation.y
      value: 0
      objectReference: {fileID: 0}
    - target: {fileID: 437086, guid: 49b0362a631aa79468a77f04e9cdc298, type: 2}
      propertyPath: m_LocalRotation.z
      value: 0
      objectReference: {fileID: 0}
    - target: {fileID: 437086, guid: 49b0362a631aa79468a77f04e9cdc298, type: 2}
      propertyPath: m_LocalRotation.w
      value: 1
      objectReference: {fileID: 0}
    - target: {fileID: 437086, guid: 49b0362a631aa79468a77f04e9cdc298, type: 2}
      propertyPath: m_RootOrder
      value: 8
      objectReference: {fileID: 0}
    m_RemovedComponents: []
  m_ParentPrefab: {fileID: 100100000, guid: 49b0362a631aa79468a77f04e9cdc298, type: 2}
  m_RootGameObject: {fileID: 959611756}
  m_IsPrefabParent: 0
--- !u!4 &712680752
Transform:
  m_ObjectHideFlags: 0
  m_PrefabParentObject: {fileID: 437086, guid: 49b0362a631aa79468a77f04e9cdc298, type: 2}
  m_PrefabInternal: {fileID: 712680751}
  m_GameObject: {fileID: 959611756}
  m_LocalRotation: {x: 0, y: 0, z: 0, w: 1}
  m_LocalPosition: {x: 0, y: 0, z: 12.88}
  m_LocalScale: {x: 1, y: 1, z: 1}
  m_Children: []
  m_Father: {fileID: 589362926}
  m_RootOrder: 8
  m_LocalEulerAnglesHint: {x: 0, y: 0, z: 0}
--- !u!1 &754969276
GameObject:
  m_ObjectHideFlags: 0
  m_PrefabParentObject: {fileID: 170736, guid: c8f241d1151c5a14dbac88fd4bea1d93, type: 2}
  m_PrefabInternal: {fileID: 270778041}
  serializedVersion: 5
  m_Component:
  - component: {fileID: 270778042}
  - component: {fileID: 754969278}
  - component: {fileID: 754969277}
  m_Layer: 0
  m_Name: TreeType5_3
  m_TagString: Untagged
  m_Icon: {fileID: 0}
  m_NavMeshLayer: 0
  m_StaticEditorFlags: 0
  m_IsActive: 1
--- !u!23 &754969277
MeshRenderer:
  m_ObjectHideFlags: 0
  m_PrefabParentObject: {fileID: 2367172, guid: c8f241d1151c5a14dbac88fd4bea1d93,
    type: 2}
  m_PrefabInternal: {fileID: 270778041}
  m_GameObject: {fileID: 754969276}
  m_Enabled: 1
  m_CastShadows: 1
  m_ReceiveShadows: 1
  m_DynamicOccludee: 1
  m_MotionVectors: 1
  m_LightProbeUsage: 1
  m_ReflectionProbeUsage: 1
  m_Materials:
  - {fileID: 2100000, guid: 05244cd1770371546991e982a45ce03e, type: 2}
  m_StaticBatchInfo:
    firstSubMesh: 0
    subMeshCount: 0
  m_StaticBatchRoot: {fileID: 0}
  m_ProbeAnchor: {fileID: 0}
  m_LightProbeVolumeOverride: {fileID: 0}
  m_ScaleInLightmap: 1
  m_PreserveUVs: 0
  m_IgnoreNormalsForChartDetection: 0
  m_ImportantGI: 0
  m_StitchLightmapSeams: 0
  m_SelectedEditorRenderState: 3
  m_MinimumChartSize: 4
  m_AutoUVMaxDistance: 0.5
  m_AutoUVMaxAngle: 89
  m_LightmapParameters: {fileID: 0}
  m_SortingLayerID: 0
  m_SortingLayer: 0
  m_SortingOrder: 0
--- !u!33 &754969278
MeshFilter:
  m_ObjectHideFlags: 0
  m_PrefabParentObject: {fileID: 3329274, guid: c8f241d1151c5a14dbac88fd4bea1d93,
    type: 2}
  m_PrefabInternal: {fileID: 270778041}
  m_GameObject: {fileID: 754969276}
  m_Mesh: {fileID: 4300000, guid: 65733ee04360b054f8ce56d55642c7fd, type: 3}
--- !u!1 &759123245
GameObject:
  m_ObjectHideFlags: 0
  m_PrefabParentObject: {fileID: 133486, guid: d77236787a13ca14d86f434d4a4a4cb6, type: 2}
  m_PrefabInternal: {fileID: 106813218}
  serializedVersion: 5
  m_Component:
  - component: {fileID: 106813219}
  - component: {fileID: 759123247}
  - component: {fileID: 759123246}
  m_Layer: 0
  m_Name: PalmType1_4
  m_TagString: Untagged
  m_Icon: {fileID: 0}
  m_NavMeshLayer: 0
  m_StaticEditorFlags: 0
  m_IsActive: 1
--- !u!23 &759123246
MeshRenderer:
  m_ObjectHideFlags: 0
  m_PrefabParentObject: {fileID: 2349124, guid: d77236787a13ca14d86f434d4a4a4cb6,
    type: 2}
  m_PrefabInternal: {fileID: 106813218}
  m_GameObject: {fileID: 759123245}
  m_Enabled: 1
  m_CastShadows: 1
  m_ReceiveShadows: 1
  m_DynamicOccludee: 1
  m_MotionVectors: 1
  m_LightProbeUsage: 1
  m_ReflectionProbeUsage: 1
  m_Materials:
  - {fileID: 2100000, guid: 05244cd1770371546991e982a45ce03e, type: 2}
  m_StaticBatchInfo:
    firstSubMesh: 0
    subMeshCount: 0
  m_StaticBatchRoot: {fileID: 0}
  m_ProbeAnchor: {fileID: 0}
  m_LightProbeVolumeOverride: {fileID: 0}
  m_ScaleInLightmap: 1
  m_PreserveUVs: 0
  m_IgnoreNormalsForChartDetection: 0
  m_ImportantGI: 0
  m_StitchLightmapSeams: 0
  m_SelectedEditorRenderState: 3
  m_MinimumChartSize: 4
  m_AutoUVMaxDistance: 0.5
  m_AutoUVMaxAngle: 89
  m_LightmapParameters: {fileID: 0}
  m_SortingLayerID: 0
  m_SortingLayer: 0
  m_SortingOrder: 0
--- !u!33 &759123247
MeshFilter:
  m_ObjectHideFlags: 0
  m_PrefabParentObject: {fileID: 3388552, guid: d77236787a13ca14d86f434d4a4a4cb6,
    type: 2}
  m_PrefabInternal: {fileID: 106813218}
  m_GameObject: {fileID: 759123245}
  m_Mesh: {fileID: 4300000, guid: 7ebf217e5ff038d4cb4f607ab01f140b, type: 3}
--- !u!1 &825230865
GameObject:
  m_ObjectHideFlags: 0
  m_PrefabParentObject: {fileID: 164484, guid: d59133509f424e849b6d63b76ed0cad2, type: 2}
  m_PrefabInternal: {fileID: 391851977}
  serializedVersion: 5
  m_Component:
  - component: {fileID: 391851978}
  - component: {fileID: 825230867}
  - component: {fileID: 825230866}
  m_Layer: 0
  m_Name: FirTree_02
  m_TagString: Untagged
  m_Icon: {fileID: 0}
  m_NavMeshLayer: 0
  m_StaticEditorFlags: 0
  m_IsActive: 1
--- !u!23 &825230866
MeshRenderer:
  m_ObjectHideFlags: 0
  m_PrefabParentObject: {fileID: 2387144, guid: d59133509f424e849b6d63b76ed0cad2,
    type: 2}
  m_PrefabInternal: {fileID: 391851977}
  m_GameObject: {fileID: 825230865}
  m_Enabled: 1
  m_CastShadows: 1
  m_ReceiveShadows: 1
  m_DynamicOccludee: 1
  m_MotionVectors: 1
  m_LightProbeUsage: 1
  m_ReflectionProbeUsage: 1
  m_Materials:
  - {fileID: 2100000, guid: 05244cd1770371546991e982a45ce03e, type: 2}
  m_StaticBatchInfo:
    firstSubMesh: 0
    subMeshCount: 0
  m_StaticBatchRoot: {fileID: 0}
  m_ProbeAnchor: {fileID: 0}
  m_LightProbeVolumeOverride: {fileID: 0}
  m_ScaleInLightmap: 1
  m_PreserveUVs: 0
  m_IgnoreNormalsForChartDetection: 0
  m_ImportantGI: 0
  m_StitchLightmapSeams: 0
  m_SelectedEditorRenderState: 3
  m_MinimumChartSize: 4
  m_AutoUVMaxDistance: 0.5
  m_AutoUVMaxAngle: 89
  m_LightmapParameters: {fileID: 0}
  m_SortingLayerID: 0
  m_SortingLayer: 0
  m_SortingOrder: 0
--- !u!33 &825230867
MeshFilter:
  m_ObjectHideFlags: 0
  m_PrefabParentObject: {fileID: 3346076, guid: d59133509f424e849b6d63b76ed0cad2,
    type: 2}
  m_PrefabInternal: {fileID: 391851977}
  m_GameObject: {fileID: 825230865}
  m_Mesh: {fileID: 4300000, guid: f5dda75856345af45935017fa81dbef3, type: 3}
--- !u!1001 &940744530
Prefab:
  m_ObjectHideFlags: 0
  serializedVersion: 2
  m_Modification:
    m_TransformParent: {fileID: 589362926}
    m_Modifications:
    - target: {fileID: 440190, guid: 4c780dab19a7e34419d3da69a409ec7e, type: 2}
      propertyPath: m_LocalPosition.x
      value: 0
      objectReference: {fileID: 0}
    - target: {fileID: 440190, guid: 4c780dab19a7e34419d3da69a409ec7e, type: 2}
      propertyPath: m_LocalPosition.y
      value: 0
      objectReference: {fileID: 0}
    - target: {fileID: 440190, guid: 4c780dab19a7e34419d3da69a409ec7e, type: 2}
      propertyPath: m_LocalPosition.z
      value: 45.5299988
      objectReference: {fileID: 0}
    - target: {fileID: 440190, guid: 4c780dab19a7e34419d3da69a409ec7e, type: 2}
      propertyPath: m_LocalRotation.x
      value: 0
      objectReference: {fileID: 0}
    - target: {fileID: 440190, guid: 4c780dab19a7e34419d3da69a409ec7e, type: 2}
      propertyPath: m_LocalRotation.y
      value: 0
      objectReference: {fileID: 0}
    - target: {fileID: 440190, guid: 4c780dab19a7e34419d3da69a409ec7e, type: 2}
      propertyPath: m_LocalRotation.z
      value: 0
      objectReference: {fileID: 0}
    - target: {fileID: 440190, guid: 4c780dab19a7e34419d3da69a409ec7e, type: 2}
      propertyPath: m_LocalRotation.w
      value: 1
      objectReference: {fileID: 0}
    - target: {fileID: 440190, guid: 4c780dab19a7e34419d3da69a409ec7e, type: 2}
      propertyPath: m_RootOrder
      value: 12
      objectReference: {fileID: 0}
    m_RemovedComponents: []
  m_ParentPrefab: {fileID: 100100000, guid: 4c780dab19a7e34419d3da69a409ec7e, type: 2}
  m_RootGameObject: {fileID: 1468559924}
  m_IsPrefabParent: 0
--- !u!4 &940744531
Transform:
  m_ObjectHideFlags: 0
  m_PrefabParentObject: {fileID: 440190, guid: 4c780dab19a7e34419d3da69a409ec7e, type: 2}
  m_PrefabInternal: {fileID: 940744530}
  m_GameObject: {fileID: 1468559924}
  m_LocalRotation: {x: 0, y: 0, z: 0, w: 1}
  m_LocalPosition: {x: 0, y: 0, z: 45.53}
  m_LocalScale: {x: 1, y: 1, z: 1}
  m_Children: []
  m_Father: {fileID: 589362926}
  m_RootOrder: 12
  m_LocalEulerAnglesHint: {x: 0, y: 0, z: 0}
--- !u!1 &959611756
GameObject:
  m_ObjectHideFlags: 0
  m_PrefabParentObject: {fileID: 158626, guid: 49b0362a631aa79468a77f04e9cdc298, type: 2}
  m_PrefabInternal: {fileID: 712680751}
  serializedVersion: 5
  m_Component:
  - component: {fileID: 712680752}
  - component: {fileID: 959611758}
  - component: {fileID: 959611757}
  m_Layer: 0
  m_Name: Shrub_03
  m_TagString: Untagged
  m_Icon: {fileID: 0}
  m_NavMeshLayer: 0
  m_StaticEditorFlags: 0
  m_IsActive: 1
--- !u!23 &959611757
MeshRenderer:
  m_ObjectHideFlags: 0
  m_PrefabParentObject: {fileID: 2345272, guid: 49b0362a631aa79468a77f04e9cdc298,
    type: 2}
  m_PrefabInternal: {fileID: 712680751}
  m_GameObject: {fileID: 959611756}
  m_Enabled: 1
  m_CastShadows: 1
  m_ReceiveShadows: 1
  m_DynamicOccludee: 1
  m_MotionVectors: 1
  m_LightProbeUsage: 1
  m_ReflectionProbeUsage: 1
  m_Materials:
  - {fileID: 2100000, guid: 05244cd1770371546991e982a45ce03e, type: 2}
  m_StaticBatchInfo:
    firstSubMesh: 0
    subMeshCount: 0
  m_StaticBatchRoot: {fileID: 0}
  m_ProbeAnchor: {fileID: 0}
  m_LightProbeVolumeOverride: {fileID: 0}
  m_ScaleInLightmap: 1
  m_PreserveUVs: 0
  m_IgnoreNormalsForChartDetection: 0
  m_ImportantGI: 0
  m_StitchLightmapSeams: 0
  m_SelectedEditorRenderState: 3
  m_MinimumChartSize: 4
  m_AutoUVMaxDistance: 0.5
  m_AutoUVMaxAngle: 89
  m_LightmapParameters: {fileID: 0}
  m_SortingLayerID: 0
  m_SortingLayer: 0
  m_SortingOrder: 0
--- !u!33 &959611758
MeshFilter:
  m_ObjectHideFlags: 0
  m_PrefabParentObject: {fileID: 3380546, guid: 49b0362a631aa79468a77f04e9cdc298,
    type: 2}
  m_PrefabInternal: {fileID: 712680751}
  m_GameObject: {fileID: 959611756}
  m_Mesh: {fileID: 4300000, guid: 9e21394f98749ea44bcb9265994a61bd, type: 3}
--- !u!1 &1089804702
GameObject:
  m_ObjectHideFlags: 0
  m_PrefabParentObject: {fileID: 160138, guid: 29974a951b75ba64d85cd76ae1e03ede, type: 2}
  m_PrefabInternal: {fileID: 172088828}
  serializedVersion: 5
  m_Component:
  - component: {fileID: 172088829}
  - component: {fileID: 1089804704}
  - component: {fileID: 1089804703}
  m_Layer: 0
  m_Name: Cactus_4
  m_TagString: Untagged
  m_Icon: {fileID: 0}
  m_NavMeshLayer: 0
  m_StaticEditorFlags: 0
  m_IsActive: 1
--- !u!23 &1089804703
MeshRenderer:
  m_ObjectHideFlags: 0
  m_PrefabParentObject: {fileID: 2353792, guid: 29974a951b75ba64d85cd76ae1e03ede,
    type: 2}
  m_PrefabInternal: {fileID: 172088828}
  m_GameObject: {fileID: 1089804702}
  m_Enabled: 1
  m_CastShadows: 1
  m_ReceiveShadows: 1
  m_DynamicOccludee: 1
  m_MotionVectors: 1
  m_LightProbeUsage: 1
  m_ReflectionProbeUsage: 1
  m_Materials:
  - {fileID: 2100000, guid: 05244cd1770371546991e982a45ce03e, type: 2}
  m_StaticBatchInfo:
    firstSubMesh: 0
    subMeshCount: 0
  m_StaticBatchRoot: {fileID: 0}
  m_ProbeAnchor: {fileID: 0}
  m_LightProbeVolumeOverride: {fileID: 0}
  m_ScaleInLightmap: 1
  m_PreserveUVs: 0
  m_IgnoreNormalsForChartDetection: 0
  m_ImportantGI: 0
  m_StitchLightmapSeams: 0
  m_SelectedEditorRenderState: 3
  m_MinimumChartSize: 4
  m_AutoUVMaxDistance: 0.5
  m_AutoUVMaxAngle: 89
  m_LightmapParameters: {fileID: 0}
  m_SortingLayerID: 0
  m_SortingLayer: 0
  m_SortingOrder: 0
--- !u!33 &1089804704
MeshFilter:
  m_ObjectHideFlags: 0
  m_PrefabParentObject: {fileID: 3337770, guid: 29974a951b75ba64d85cd76ae1e03ede,
    type: 2}
  m_PrefabInternal: {fileID: 172088828}
  m_GameObject: {fileID: 1089804702}
  m_Mesh: {fileID: 4300000, guid: d3656fa8ed856744c8fec90854b6c907, type: 3}
--- !u!1 &1181703286
GameObject:
  m_ObjectHideFlags: 0
  m_PrefabParentObject: {fileID: 102184, guid: d49634e20277dae4bb3439bfd5262bb7, type: 2}
  m_PrefabInternal: {fileID: 1347686426}
  serializedVersion: 5
  m_Component:
  - component: {fileID: 1347686427}
  - component: {fileID: 1181703288}
  - component: {fileID: 1181703287}
  m_Layer: 0
  m_Name: DeadTree_08
  m_TagString: Untagged
  m_Icon: {fileID: 0}
  m_NavMeshLayer: 0
  m_StaticEditorFlags: 0
  m_IsActive: 1
--- !u!23 &1181703287
MeshRenderer:
  m_ObjectHideFlags: 0
  m_PrefabParentObject: {fileID: 2399546, guid: d49634e20277dae4bb3439bfd5262bb7,
    type: 2}
  m_PrefabInternal: {fileID: 1347686426}
  m_GameObject: {fileID: 1181703286}
  m_Enabled: 1
  m_CastShadows: 1
  m_ReceiveShadows: 1
  m_DynamicOccludee: 1
  m_MotionVectors: 1
  m_LightProbeUsage: 1
  m_ReflectionProbeUsage: 1
  m_Materials:
  - {fileID: 2100000, guid: 05244cd1770371546991e982a45ce03e, type: 2}
  m_StaticBatchInfo:
    firstSubMesh: 0
    subMeshCount: 0
  m_StaticBatchRoot: {fileID: 0}
  m_ProbeAnchor: {fileID: 0}
  m_LightProbeVolumeOverride: {fileID: 0}
  m_ScaleInLightmap: 1
  m_PreserveUVs: 0
  m_IgnoreNormalsForChartDetection: 0
  m_ImportantGI: 0
  m_StitchLightmapSeams: 0
  m_SelectedEditorRenderState: 3
  m_MinimumChartSize: 4
  m_AutoUVMaxDistance: 0.5
  m_AutoUVMaxAngle: 89
  m_LightmapParameters: {fileID: 0}
  m_SortingLayerID: 0
  m_SortingLayer: 0
  m_SortingOrder: 0
--- !u!33 &1181703288
MeshFilter:
  m_ObjectHideFlags: 0
  m_PrefabParentObject: {fileID: 3378790, guid: d49634e20277dae4bb3439bfd5262bb7,
    type: 2}
  m_PrefabInternal: {fileID: 1347686426}
  m_GameObject: {fileID: 1181703286}
  m_Mesh: {fileID: 4300000, guid: a33de129d26096e4c9130d818fd7a77c, type: 3}
--- !u!1001 &1211538570
Prefab:
  m_ObjectHideFlags: 0
  serializedVersion: 2
  m_Modification:
    m_TransformParent: {fileID: 589362926}
    m_Modifications:
    - target: {fileID: 422556, guid: 458a74fb5b4f6ee4f8ec12ac39eb02a7, type: 2}
      propertyPath: m_LocalPosition.x
      value: 0
      objectReference: {fileID: 0}
    - target: {fileID: 422556, guid: 458a74fb5b4f6ee4f8ec12ac39eb02a7, type: 2}
      propertyPath: m_LocalPosition.y
      value: 0
      objectReference: {fileID: 0}
    - target: {fileID: 422556, guid: 458a74fb5b4f6ee4f8ec12ac39eb02a7, type: 2}
      propertyPath: m_LocalPosition.z
      value: 53.5999985
      objectReference: {fileID: 0}
    - target: {fileID: 422556, guid: 458a74fb5b4f6ee4f8ec12ac39eb02a7, type: 2}
      propertyPath: m_LocalRotation.x
      value: 0
      objectReference: {fileID: 0}
    - target: {fileID: 422556, guid: 458a74fb5b4f6ee4f8ec12ac39eb02a7, type: 2}
      propertyPath: m_LocalRotation.y
      value: 0
      objectReference: {fileID: 0}
    - target: {fileID: 422556, guid: 458a74fb5b4f6ee4f8ec12ac39eb02a7, type: 2}
      propertyPath: m_LocalRotation.z
      value: 0
      objectReference: {fileID: 0}
    - target: {fileID: 422556, guid: 458a74fb5b4f6ee4f8ec12ac39eb02a7, type: 2}
      propertyPath: m_LocalRotation.w
      value: 1
      objectReference: {fileID: 0}
    - target: {fileID: 422556, guid: 458a74fb5b4f6ee4f8ec12ac39eb02a7, type: 2}
      propertyPath: m_RootOrder
      value: 10
      objectReference: {fileID: 0}
    m_RemovedComponents: []
  m_ParentPrefab: {fileID: 100100000, guid: 458a74fb5b4f6ee4f8ec12ac39eb02a7, type: 2}
  m_RootGameObject: {fileID: 1510579111}
  m_IsPrefabParent: 0
--- !u!4 &1211538571
Transform:
  m_ObjectHideFlags: 0
  m_PrefabParentObject: {fileID: 422556, guid: 458a74fb5b4f6ee4f8ec12ac39eb02a7, type: 2}
  m_PrefabInternal: {fileID: 1211538570}
  m_GameObject: {fileID: 1510579111}
  m_LocalRotation: {x: 0, y: 0, z: 0, w: 1}
  m_LocalPosition: {x: 0, y: 0, z: 53.6}
  m_LocalScale: {x: 1, y: 1, z: 1}
  m_Children: []
  m_Father: {fileID: 589362926}
  m_RootOrder: 10
  m_LocalEulerAnglesHint: {x: 0, y: 0, z: 0}
--- !u!1001 &1226956068
Prefab:
  m_ObjectHideFlags: 0
  serializedVersion: 2
  m_Modification:
    m_TransformParent: {fileID: 589362926}
    m_Modifications:
    - target: {fileID: 481786, guid: 7d778c6a61935e74393cd80fa8335495, type: 2}
      propertyPath: m_LocalPosition.x
      value: 0
      objectReference: {fileID: 0}
    - target: {fileID: 481786, guid: 7d778c6a61935e74393cd80fa8335495, type: 2}
      propertyPath: m_LocalPosition.y
      value: 0
      objectReference: {fileID: 0}
    - target: {fileID: 481786, guid: 7d778c6a61935e74393cd80fa8335495, type: 2}
      propertyPath: m_LocalPosition.z
      value: 58.7099991
      objectReference: {fileID: 0}
    - target: {fileID: 481786, guid: 7d778c6a61935e74393cd80fa8335495, type: 2}
      propertyPath: m_LocalRotation.x
      value: 0
      objectReference: {fileID: 0}
    - target: {fileID: 481786, guid: 7d778c6a61935e74393cd80fa8335495, type: 2}
      propertyPath: m_LocalRotation.y
      value: 0
      objectReference: {fileID: 0}
    - target: {fileID: 481786, guid: 7d778c6a61935e74393cd80fa8335495, type: 2}
      propertyPath: m_LocalRotation.z
      value: 0
      objectReference: {fileID: 0}
    - target: {fileID: 481786, guid: 7d778c6a61935e74393cd80fa8335495, type: 2}
      propertyPath: m_LocalRotation.w
      value: 1
      objectReference: {fileID: 0}
    - target: {fileID: 481786, guid: 7d778c6a61935e74393cd80fa8335495, type: 2}
      propertyPath: m_RootOrder
      value: 18
      objectReference: {fileID: 0}
    m_RemovedComponents: []
  m_ParentPrefab: {fileID: 100100000, guid: 7d778c6a61935e74393cd80fa8335495, type: 2}
  m_RootGameObject: {fileID: 1823068156}
  m_IsPrefabParent: 0
--- !u!4 &1226956069
Transform:
  m_ObjectHideFlags: 0
  m_PrefabParentObject: {fileID: 481786, guid: 7d778c6a61935e74393cd80fa8335495, type: 2}
  m_PrefabInternal: {fileID: 1226956068}
  m_GameObject: {fileID: 1823068156}
  m_LocalRotation: {x: 0, y: 0, z: 0, w: 1}
  m_LocalPosition: {x: 0, y: 0, z: 58.71}
  m_LocalScale: {x: 0.46668103, y: 0.46668103, z: 0.46668103}
  m_Children: []
  m_Father: {fileID: 589362926}
  m_RootOrder: 18
  m_LocalEulerAnglesHint: {x: 0, y: 0, z: 0}
--- !u!1 &1244419737
GameObject:
  m_ObjectHideFlags: 0
  m_PrefabParentObject: {fileID: 129990, guid: f89cb707cc080fe4f93109b17f751eb0, type: 2}
  m_PrefabInternal: {fileID: 596311231}
  serializedVersion: 5
  m_Component:
  - component: {fileID: 596311232}
  - component: {fileID: 1244419739}
  - component: {fileID: 1244419738}
  m_Layer: 0
  m_Name: Branch_5
  m_TagString: Untagged
  m_Icon: {fileID: 0}
  m_NavMeshLayer: 0
  m_StaticEditorFlags: 0
  m_IsActive: 1
--- !u!23 &1244419738
MeshRenderer:
  m_ObjectHideFlags: 0
  m_PrefabParentObject: {fileID: 2322218, guid: f89cb707cc080fe4f93109b17f751eb0,
    type: 2}
  m_PrefabInternal: {fileID: 596311231}
  m_GameObject: {fileID: 1244419737}
  m_Enabled: 1
  m_CastShadows: 1
  m_ReceiveShadows: 1
  m_DynamicOccludee: 1
  m_MotionVectors: 1
  m_LightProbeUsage: 1
  m_ReflectionProbeUsage: 1
  m_Materials:
  - {fileID: 2100000, guid: 05244cd1770371546991e982a45ce03e, type: 2}
  m_StaticBatchInfo:
    firstSubMesh: 0
    subMeshCount: 0
  m_StaticBatchRoot: {fileID: 0}
  m_ProbeAnchor: {fileID: 0}
  m_LightProbeVolumeOverride: {fileID: 0}
  m_ScaleInLightmap: 1
  m_PreserveUVs: 0
  m_IgnoreNormalsForChartDetection: 0
  m_ImportantGI: 0
  m_StitchLightmapSeams: 0
  m_SelectedEditorRenderState: 3
  m_MinimumChartSize: 4
  m_AutoUVMaxDistance: 0.5
  m_AutoUVMaxAngle: 89
  m_LightmapParameters: {fileID: 0}
  m_SortingLayerID: 0
  m_SortingLayer: 0
  m_SortingOrder: 0
--- !u!33 &1244419739
MeshFilter:
  m_ObjectHideFlags: 0
  m_PrefabParentObject: {fileID: 3355906, guid: f89cb707cc080fe4f93109b17f751eb0,
    type: 2}
  m_PrefabInternal: {fileID: 596311231}
  m_GameObject: {fileID: 1244419737}
  m_Mesh: {fileID: 4300000, guid: 74b19e84d1663f04c9b29c6244e5364b, type: 3}
--- !u!1001 &1347686426
Prefab:
  m_ObjectHideFlags: 0
  serializedVersion: 2
  m_Modification:
    m_TransformParent: {fileID: 589362926}
    m_Modifications:
    - target: {fileID: 400038, guid: d49634e20277dae4bb3439bfd5262bb7, type: 2}
      propertyPath: m_LocalPosition.x
      value: 0
      objectReference: {fileID: 0}
    - target: {fileID: 400038, guid: d49634e20277dae4bb3439bfd5262bb7, type: 2}
      propertyPath: m_LocalPosition.y
      value: 0
      objectReference: {fileID: 0}
    - target: {fileID: 400038, guid: d49634e20277dae4bb3439bfd5262bb7, type: 2}
      propertyPath: m_LocalPosition.z
      value: 7.17999983
      objectReference: {fileID: 0}
    - target: {fileID: 400038, guid: d49634e20277dae4bb3439bfd5262bb7, type: 2}
      propertyPath: m_LocalRotation.x
      value: 0
      objectReference: {fileID: 0}
    - target: {fileID: 400038, guid: d49634e20277dae4bb3439bfd5262bb7, type: 2}
      propertyPath: m_LocalRotation.y
      value: 0
      objectReference: {fileID: 0}
    - target: {fileID: 400038, guid: d49634e20277dae4bb3439bfd5262bb7, type: 2}
      propertyPath: m_LocalRotation.z
      value: 0
      objectReference: {fileID: 0}
    - target: {fileID: 400038, guid: d49634e20277dae4bb3439bfd5262bb7, type: 2}
      propertyPath: m_LocalRotation.w
      value: 1
      objectReference: {fileID: 0}
    - target: {fileID: 400038, guid: d49634e20277dae4bb3439bfd5262bb7, type: 2}
      propertyPath: m_RootOrder
      value: 15
      objectReference: {fileID: 0}
    m_RemovedComponents: []
  m_ParentPrefab: {fileID: 100100000, guid: d49634e20277dae4bb3439bfd5262bb7, type: 2}
  m_RootGameObject: {fileID: 1181703286}
  m_IsPrefabParent: 0
--- !u!4 &1347686427
Transform:
  m_ObjectHideFlags: 0
  m_PrefabParentObject: {fileID: 400038, guid: d49634e20277dae4bb3439bfd5262bb7, type: 2}
  m_PrefabInternal: {fileID: 1347686426}
  m_GameObject: {fileID: 1181703286}
  m_LocalRotation: {x: 0, y: 0, z: 0, w: 1}
  m_LocalPosition: {x: 0, y: 0, z: 7.18}
  m_LocalScale: {x: 1, y: 1, z: 1}
  m_Children: []
  m_Father: {fileID: 589362926}
  m_RootOrder: 15
  m_LocalEulerAnglesHint: {x: 0, y: 0, z: 0}
--- !u!1001 &1379021362
Prefab:
  m_ObjectHideFlags: 0
  serializedVersion: 2
  m_Modification:
    m_TransformParent: {fileID: 589362926}
    m_Modifications:
    - target: {fileID: 425266, guid: 7b008d3317859a847b83f2613744530b, type: 2}
      propertyPath: m_LocalPosition.x
      value: 0
      objectReference: {fileID: 0}
    - target: {fileID: 425266, guid: 7b008d3317859a847b83f2613744530b, type: 2}
      propertyPath: m_LocalPosition.y
      value: 0
      objectReference: {fileID: 0}
    - target: {fileID: 425266, guid: 7b008d3317859a847b83f2613744530b, type: 2}
      propertyPath: m_LocalPosition.z
      value: 62.0699997
      objectReference: {fileID: 0}
    - target: {fileID: 425266, guid: 7b008d3317859a847b83f2613744530b, type: 2}
      propertyPath: m_LocalRotation.x
      value: 0
      objectReference: {fileID: 0}
    - target: {fileID: 425266, guid: 7b008d3317859a847b83f2613744530b, type: 2}
      propertyPath: m_LocalRotation.y
      value: 0
      objectReference: {fileID: 0}
    - target: {fileID: 425266, guid: 7b008d3317859a847b83f2613744530b, type: 2}
      propertyPath: m_LocalRotation.z
      value: 0
      objectReference: {fileID: 0}
    - target: {fileID: 425266, guid: 7b008d3317859a847b83f2613744530b, type: 2}
      propertyPath: m_LocalRotation.w
      value: 1
      objectReference: {fileID: 0}
    - target: {fileID: 425266, guid: 7b008d3317859a847b83f2613744530b, type: 2}
      propertyPath: m_RootOrder
      value: 22
      objectReference: {fileID: 0}
    m_RemovedComponents: []
  m_ParentPrefab: {fileID: 100100000, guid: 7b008d3317859a847b83f2613744530b, type: 2}
  m_RootGameObject: {fileID: 419868354}
  m_IsPrefabParent: 0
--- !u!4 &1379021363
Transform:
  m_ObjectHideFlags: 0
  m_PrefabParentObject: {fileID: 425266, guid: 7b008d3317859a847b83f2613744530b, type: 2}
  m_PrefabInternal: {fileID: 1379021362}
  m_GameObject: {fileID: 419868354}
  m_LocalRotation: {x: 0, y: 0, z: 0, w: 1}
  m_LocalPosition: {x: 0, y: 0, z: 62.07}
  m_LocalScale: {x: 0.46668103, y: 0.46668103, z: 0.46668103}
  m_Children: []
  m_Father: {fileID: 589362926}
  m_RootOrder: 22
  m_LocalEulerAnglesHint: {x: 0, y: 0, z: 0}
--- !u!1 &1394645025
GameObject:
  m_ObjectHideFlags: 0
  m_PrefabParentObject: {fileID: 193400, guid: 61c514000f4738f4ca05258453cb351e, type: 2}
  m_PrefabInternal: {fileID: 312239387}
  serializedVersion: 5
  m_Component:
  - component: {fileID: 312239388}
  - component: {fileID: 1394645027}
  - component: {fileID: 1394645026}
  m_Layer: 0
  m_Name: Stump_03
  m_TagString: Untagged
  m_Icon: {fileID: 0}
  m_NavMeshLayer: 0
  m_StaticEditorFlags: 0
  m_IsActive: 1
--- !u!23 &1394645026
MeshRenderer:
  m_ObjectHideFlags: 0
  m_PrefabParentObject: {fileID: 2355618, guid: 61c514000f4738f4ca05258453cb351e,
    type: 2}
  m_PrefabInternal: {fileID: 312239387}
  m_GameObject: {fileID: 1394645025}
  m_Enabled: 1
  m_CastShadows: 1
  m_ReceiveShadows: 1
  m_DynamicOccludee: 1
  m_MotionVectors: 1
  m_LightProbeUsage: 1
  m_ReflectionProbeUsage: 1
  m_Materials:
  - {fileID: 2100000, guid: 05244cd1770371546991e982a45ce03e, type: 2}
  m_StaticBatchInfo:
    firstSubMesh: 0
    subMeshCount: 0
  m_StaticBatchRoot: {fileID: 0}
  m_ProbeAnchor: {fileID: 0}
  m_LightProbeVolumeOverride: {fileID: 0}
  m_ScaleInLightmap: 1
  m_PreserveUVs: 0
  m_IgnoreNormalsForChartDetection: 0
  m_ImportantGI: 0
  m_StitchLightmapSeams: 0
  m_SelectedEditorRenderState: 3
  m_MinimumChartSize: 4
  m_AutoUVMaxDistance: 0.5
  m_AutoUVMaxAngle: 89
  m_LightmapParameters: {fileID: 0}
  m_SortingLayerID: 0
  m_SortingLayer: 0
  m_SortingOrder: 0
--- !u!33 &1394645027
MeshFilter:
  m_ObjectHideFlags: 0
  m_PrefabParentObject: {fileID: 3326120, guid: 61c514000f4738f4ca05258453cb351e,
    type: 2}
  m_PrefabInternal: {fileID: 312239387}
  m_GameObject: {fileID: 1394645025}
  m_Mesh: {fileID: 4300000, guid: 9658f6ca8f6ae9445b3093feaed09aa2, type: 3}
--- !u!1001 &1425967428
Prefab:
  m_ObjectHideFlags: 0
  serializedVersion: 2
  m_Modification:
    m_TransformParent: {fileID: 589362926}
    m_Modifications:
    - target: {fileID: 433104, guid: a26755279c9990846885b2c02b52dac6, type: 2}
      propertyPath: m_LocalPosition.x
      value: 0
      objectReference: {fileID: 0}
    - target: {fileID: 433104, guid: a26755279c9990846885b2c02b52dac6, type: 2}
      propertyPath: m_LocalPosition.y
      value: 0
      objectReference: {fileID: 0}
    - target: {fileID: 433104, guid: a26755279c9990846885b2c02b52dac6, type: 2}
      propertyPath: m_LocalPosition.z
      value: 56.3100014
      objectReference: {fileID: 0}
    - target: {fileID: 433104, guid: a26755279c9990846885b2c02b52dac6, type: 2}
      propertyPath: m_LocalRotation.x
      value: 0
      objectReference: {fileID: 0}
    - target: {fileID: 433104, guid: a26755279c9990846885b2c02b52dac6, type: 2}
      propertyPath: m_LocalRotation.y
      value: 0
      objectReference: {fileID: 0}
    - target: {fileID: 433104, guid: a26755279c9990846885b2c02b52dac6, type: 2}
      propertyPath: m_LocalRotation.z
      value: 0
      objectReference: {fileID: 0}
    - target: {fileID: 433104, guid: a26755279c9990846885b2c02b52dac6, type: 2}
      propertyPath: m_LocalRotation.w
      value: 1
      objectReference: {fileID: 0}
    - target: {fileID: 433104, guid: a26755279c9990846885b2c02b52dac6, type: 2}
      propertyPath: m_RootOrder
      value: 16
      objectReference: {fileID: 0}
    - target: {fileID: 133892, guid: a26755279c9990846885b2c02b52dac6, type: 2}
      propertyPath: m_Name
      value: Corn
      objectReference: {fileID: 0}
    m_RemovedComponents: []
  m_ParentPrefab: {fileID: 100100000, guid: a26755279c9990846885b2c02b52dac6, type: 2}
  m_RootGameObject: {fileID: 1679538470}
  m_IsPrefabParent: 0
--- !u!4 &1425967429
Transform:
  m_ObjectHideFlags: 0
  m_PrefabParentObject: {fileID: 433104, guid: a26755279c9990846885b2c02b52dac6, type: 2}
  m_PrefabInternal: {fileID: 1425967428}
  m_GameObject: {fileID: 206207192}
  m_LocalRotation: {x: 0, y: 0, z: 0, w: 1}
  m_LocalPosition: {x: 0, y: 0, z: 0}
  m_LocalScale: {x: 1, y: 1, z: 1}
  m_Children: []
  m_Father: {fileID: 1679538471}
  m_RootOrder: 0
  m_LocalEulerAnglesHint: {x: 0, y: 0, z: 0}
--- !u!1 &1468559924
GameObject:
  m_ObjectHideFlags: 0
  m_PrefabParentObject: {fileID: 167550, guid: 4c780dab19a7e34419d3da69a409ec7e, type: 2}
  m_PrefabInternal: {fileID: 940744530}
  serializedVersion: 5
  m_Component:
  - component: {fileID: 940744531}
  - component: {fileID: 1468559926}
  - component: {fileID: 1468559925}
  m_Layer: 0
  m_Name: Grass3D_08
  m_TagString: Untagged
  m_Icon: {fileID: 0}
  m_NavMeshLayer: 0
  m_StaticEditorFlags: 0
  m_IsActive: 1
--- !u!23 &1468559925
MeshRenderer:
  m_ObjectHideFlags: 0
  m_PrefabParentObject: {fileID: 2333620, guid: 4c780dab19a7e34419d3da69a409ec7e,
    type: 2}
  m_PrefabInternal: {fileID: 940744530}
  m_GameObject: {fileID: 1468559924}
  m_Enabled: 1
  m_CastShadows: 1
  m_ReceiveShadows: 1
  m_DynamicOccludee: 1
  m_MotionVectors: 1
  m_LightProbeUsage: 1
  m_ReflectionProbeUsage: 1
  m_Materials:
  - {fileID: 2100000, guid: 05244cd1770371546991e982a45ce03e, type: 2}
  m_StaticBatchInfo:
    firstSubMesh: 0
    subMeshCount: 0
  m_StaticBatchRoot: {fileID: 0}
  m_ProbeAnchor: {fileID: 0}
  m_LightProbeVolumeOverride: {fileID: 0}
  m_ScaleInLightmap: 1
  m_PreserveUVs: 0
  m_IgnoreNormalsForChartDetection: 0
  m_ImportantGI: 0
  m_StitchLightmapSeams: 0
  m_SelectedEditorRenderState: 3
  m_MinimumChartSize: 4
  m_AutoUVMaxDistance: 0.5
  m_AutoUVMaxAngle: 89
  m_LightmapParameters: {fileID: 0}
  m_SortingLayerID: 0
  m_SortingLayer: 0
  m_SortingOrder: 0
--- !u!33 &1468559926
MeshFilter:
  m_ObjectHideFlags: 0
  m_PrefabParentObject: {fileID: 3352750, guid: 4c780dab19a7e34419d3da69a409ec7e,
    type: 2}
  m_PrefabInternal: {fileID: 940744530}
  m_GameObject: {fileID: 1468559924}
  m_Mesh: {fileID: 4300000, guid: cb7c1f4a542678b4684417f1118e2703, type: 3}
--- !u!1 &1510579111
GameObject:
  m_ObjectHideFlags: 0
  m_PrefabParentObject: {fileID: 186700, guid: 458a74fb5b4f6ee4f8ec12ac39eb02a7, type: 2}
  m_PrefabInternal: {fileID: 1211538570}
  serializedVersion: 5
  m_Component:
  - component: {fileID: 1211538571}
  - component: {fileID: 1510579113}
  - component: {fileID: 1510579112}
  m_Layer: 0
  m_Name: MushroomType1_3
  m_TagString: Untagged
  m_Icon: {fileID: 0}
  m_NavMeshLayer: 0
  m_StaticEditorFlags: 0
  m_IsActive: 1
--- !u!23 &1510579112
MeshRenderer:
  m_ObjectHideFlags: 0
  m_PrefabParentObject: {fileID: 2301282, guid: 458a74fb5b4f6ee4f8ec12ac39eb02a7,
    type: 2}
  m_PrefabInternal: {fileID: 1211538570}
  m_GameObject: {fileID: 1510579111}
  m_Enabled: 1
  m_CastShadows: 1
  m_ReceiveShadows: 1
  m_DynamicOccludee: 1
  m_MotionVectors: 1
  m_LightProbeUsage: 1
  m_ReflectionProbeUsage: 1
  m_Materials:
  - {fileID: 2100000, guid: 05244cd1770371546991e982a45ce03e, type: 2}
  m_StaticBatchInfo:
    firstSubMesh: 0
    subMeshCount: 0
  m_StaticBatchRoot: {fileID: 0}
  m_ProbeAnchor: {fileID: 0}
  m_LightProbeVolumeOverride: {fileID: 0}
  m_ScaleInLightmap: 1
  m_PreserveUVs: 0
  m_IgnoreNormalsForChartDetection: 0
  m_ImportantGI: 0
  m_StitchLightmapSeams: 0
  m_SelectedEditorRenderState: 3
  m_MinimumChartSize: 4
  m_AutoUVMaxDistance: 0.5
  m_AutoUVMaxAngle: 89
  m_LightmapParameters: {fileID: 0}
  m_SortingLayerID: 0
  m_SortingLayer: 0
  m_SortingOrder: 0
--- !u!33 &1510579113
MeshFilter:
  m_ObjectHideFlags: 0
  m_PrefabParentObject: {fileID: 3382922, guid: 458a74fb5b4f6ee4f8ec12ac39eb02a7,
    type: 2}
  m_PrefabInternal: {fileID: 1211538570}
  m_GameObject: {fileID: 1510579111}
  m_Mesh: {fileID: 4300000, guid: ae249015df084d24d91ca7f1fadc7bf1, type: 3}
--- !u!1001 &1634122547
Prefab:
  m_ObjectHideFlags: 0
  serializedVersion: 2
  m_Modification:
    m_TransformParent: {fileID: 589362926}
    m_Modifications:
    - target: {fileID: 489386, guid: 7572b8494dca61844ae502ca4d47915f, type: 2}
      propertyPath: m_LocalPosition.x
      value: 0
      objectReference: {fileID: 0}
    - target: {fileID: 489386, guid: 7572b8494dca61844ae502ca4d47915f, type: 2}
      propertyPath: m_LocalPosition.y
      value: 0
      objectReference: {fileID: 0}
    - target: {fileID: 489386, guid: 7572b8494dca61844ae502ca4d47915f, type: 2}
      propertyPath: m_LocalPosition.z
      value: -10.1099997
      objectReference: {fileID: 0}
    - target: {fileID: 489386, guid: 7572b8494dca61844ae502ca4d47915f, type: 2}
      propertyPath: m_LocalRotation.x
      value: 0
      objectReference: {fileID: 0}
    - target: {fileID: 489386, guid: 7572b8494dca61844ae502ca4d47915f, type: 2}
      propertyPath: m_LocalRotation.y
      value: 0
      objectReference: {fileID: 0}
    - target: {fileID: 489386, guid: 7572b8494dca61844ae502ca4d47915f, type: 2}
      propertyPath: m_LocalRotation.z
      value: 0
      objectReference: {fileID: 0}
    - target: {fileID: 489386, guid: 7572b8494dca61844ae502ca4d47915f, type: 2}
      propertyPath: m_LocalRotation.w
      value: 1
      objectReference: {fileID: 0}
    - target: {fileID: 489386, guid: 7572b8494dca61844ae502ca4d47915f, type: 2}
      propertyPath: m_RootOrder
      value: 2
      objectReference: {fileID: 0}
    m_RemovedComponents: []
  m_ParentPrefab: {fileID: 100100000, guid: 7572b8494dca61844ae502ca4d47915f, type: 2}
  m_RootGameObject: {fileID: 2068415588}
  m_IsPrefabParent: 0
--- !u!4 &1634122548
Transform:
  m_ObjectHideFlags: 0
  m_PrefabParentObject: {fileID: 489386, guid: 7572b8494dca61844ae502ca4d47915f, type: 2}
  m_PrefabInternal: {fileID: 1634122547}
  m_GameObject: {fileID: 2068415588}
  m_LocalRotation: {x: 0, y: 0, z: 0, w: 1}
  m_LocalPosition: {x: 0, y: 0, z: -10.11}
  m_LocalScale: {x: 1, y: 1, z: 1}
  m_Children: []
  m_Father: {fileID: 589362926}
  m_RootOrder: 2
  m_LocalEulerAnglesHint: {x: 0, y: 0, z: 0}
--- !u!1 &1679538470
GameObject:
  m_ObjectHideFlags: 0
  m_PrefabParentObject: {fileID: 0}
  m_PrefabInternal: {fileID: 1425967428}
  serializedVersion: 5
  m_Component:
  - component: {fileID: 1679538471}
  m_Layer: 0
  m_Name: Missing Prefab
  m_TagString: Untagged
  m_Icon: {fileID: 0}
  m_NavMeshLayer: 0
  m_StaticEditorFlags: 0
  m_IsActive: 1
--- !u!4 &1679538471
Transform:
  m_ObjectHideFlags: 0
  m_PrefabParentObject: {fileID: 0}
  m_PrefabInternal: {fileID: 1425967428}
  m_GameObject: {fileID: 1679538470}
  m_LocalRotation: {x: 0, y: 0, z: 0, w: 1}
  m_LocalPosition: {x: 0, y: 0, z: 0}
  m_LocalScale: {x: 1, y: 1, z: 1}
  m_Children:
  - {fileID: 1425967429}
  m_Father: {fileID: 589362926}
  m_RootOrder: 16
  m_LocalEulerAnglesHint: {x: 0, y: 0, z: 0}
--- !u!1 &1798838367
GameObject:
  m_ObjectHideFlags: 0
  m_PrefabParentObject: {fileID: 114378, guid: 35047f5db11d8804f941830d7855dcf9, type: 2}
  m_PrefabInternal: {fileID: 2106915930}
  serializedVersion: 5
  m_Component:
  - component: {fileID: 2106915931}
  - component: {fileID: 1798838369}
  - component: {fileID: 1798838368}
  m_Layer: 0
  m_Name: Grass3D_10
  m_TagString: Untagged
  m_Icon: {fileID: 0}
  m_NavMeshLayer: 0
  m_StaticEditorFlags: 0
  m_IsActive: 1
--- !u!23 &1798838368
MeshRenderer:
  m_ObjectHideFlags: 0
  m_PrefabParentObject: {fileID: 2371780, guid: 35047f5db11d8804f941830d7855dcf9,
    type: 2}
  m_PrefabInternal: {fileID: 2106915930}
  m_GameObject: {fileID: 1798838367}
  m_Enabled: 1
  m_CastShadows: 1
  m_ReceiveShadows: 1
  m_DynamicOccludee: 1
  m_MotionVectors: 1
  m_LightProbeUsage: 1
  m_ReflectionProbeUsage: 1
  m_Materials:
  - {fileID: 2100000, guid: 05244cd1770371546991e982a45ce03e, type: 2}
  m_StaticBatchInfo:
    firstSubMesh: 0
    subMeshCount: 0
  m_StaticBatchRoot: {fileID: 0}
  m_ProbeAnchor: {fileID: 0}
  m_LightProbeVolumeOverride: {fileID: 0}
  m_ScaleInLightmap: 1
  m_PreserveUVs: 0
  m_IgnoreNormalsForChartDetection: 0
  m_ImportantGI: 0
  m_StitchLightmapSeams: 0
  m_SelectedEditorRenderState: 3
  m_MinimumChartSize: 4
  m_AutoUVMaxDistance: 0.5
  m_AutoUVMaxAngle: 89
  m_LightmapParameters: {fileID: 0}
  m_SortingLayerID: 0
  m_SortingLayer: 0
  m_SortingOrder: 0
--- !u!33 &1798838369
MeshFilter:
  m_ObjectHideFlags: 0
  m_PrefabParentObject: {fileID: 3384230, guid: 35047f5db11d8804f941830d7855dcf9,
    type: 2}
  m_PrefabInternal: {fileID: 2106915930}
  m_GameObject: {fileID: 1798838367}
  m_Mesh: {fileID: 4300000, guid: 0fcc27fadc412e04d94e158bc4f0fafd, type: 3}
--- !u!1 &1823068156
GameObject:
  m_ObjectHideFlags: 0
  m_PrefabParentObject: {fileID: 174028, guid: 7d778c6a61935e74393cd80fa8335495, type: 2}
  m_PrefabInternal: {fileID: 1226956068}
  serializedVersion: 5
  m_Component:
  - component: {fileID: 1226956069}
  - component: {fileID: 1823068158}
  - component: {fileID: 1823068157}
  m_Layer: 0
  m_Name: Carrot
  m_TagString: Untagged
  m_Icon: {fileID: 0}
  m_NavMeshLayer: 0
  m_StaticEditorFlags: 0
  m_IsActive: 1
--- !u!23 &1823068157
MeshRenderer:
  m_ObjectHideFlags: 0
  m_PrefabParentObject: {fileID: 2308452, guid: 7d778c6a61935e74393cd80fa8335495,
    type: 2}
  m_PrefabInternal: {fileID: 1226956068}
  m_GameObject: {fileID: 1823068156}
  m_Enabled: 1
  m_CastShadows: 1
  m_ReceiveShadows: 1
  m_DynamicOccludee: 1
  m_MotionVectors: 1
  m_LightProbeUsage: 1
  m_ReflectionProbeUsage: 1
  m_Materials:
  - {fileID: 2100000, guid: 05244cd1770371546991e982a45ce03e, type: 2}
  m_StaticBatchInfo:
    firstSubMesh: 0
    subMeshCount: 0
  m_StaticBatchRoot: {fileID: 0}
  m_ProbeAnchor: {fileID: 0}
  m_LightProbeVolumeOverride: {fileID: 0}
  m_ScaleInLightmap: 1
  m_PreserveUVs: 0
  m_IgnoreNormalsForChartDetection: 0
  m_ImportantGI: 0
  m_StitchLightmapSeams: 0
  m_SelectedEditorRenderState: 3
  m_MinimumChartSize: 4
  m_AutoUVMaxDistance: 0.5
  m_AutoUVMaxAngle: 89
  m_LightmapParameters: {fileID: 0}
  m_SortingLayerID: 0
  m_SortingLayer: 0
  m_SortingOrder: 0
--- !u!33 &1823068158
MeshFilter:
  m_ObjectHideFlags: 0
  m_PrefabParentObject: {fileID: 3306280, guid: 7d778c6a61935e74393cd80fa8335495,
    type: 2}
  m_PrefabInternal: {fileID: 1226956068}
  m_GameObject: {fileID: 1823068156}
  m_Mesh: {fileID: 4300000, guid: 4e0f64d8c8bcb4346ab30955b2d8f12a, type: 3}
--- !u!1001 &1831922106
Prefab:
  m_ObjectHideFlags: 0
  serializedVersion: 2
  m_Modification:
    m_TransformParent: {fileID: 589362926}
    m_Modifications:
    - target: {fileID: 404576, guid: 44a93fec55b694342847efc8ce1a73da, type: 2}
      propertyPath: m_LocalPosition.x
      value: 0
      objectReference: {fileID: 0}
    - target: {fileID: 404576, guid: 44a93fec55b694342847efc8ce1a73da, type: 2}
      propertyPath: m_LocalPosition.y
      value: .219999999
      objectReference: {fileID: 0}
    - target: {fileID: 404576, guid: 44a93fec55b694342847efc8ce1a73da, type: 2}
      propertyPath: m_LocalPosition.z
      value: -37.6899986
      objectReference: {fileID: 0}
    - target: {fileID: 404576, guid: 44a93fec55b694342847efc8ce1a73da, type: 2}
      propertyPath: m_LocalRotation.x
      value: 0
      objectReference: {fileID: 0}
    - target: {fileID: 404576, guid: 44a93fec55b694342847efc8ce1a73da, type: 2}
      propertyPath: m_LocalRotation.y
      value: 0
      objectReference: {fileID: 0}
    - target: {fileID: 404576, guid: 44a93fec55b694342847efc8ce1a73da, type: 2}
      propertyPath: m_LocalRotation.z
      value: 0
      objectReference: {fileID: 0}
    - target: {fileID: 404576, guid: 44a93fec55b694342847efc8ce1a73da, type: 2}
      propertyPath: m_LocalRotation.w
      value: 1
      objectReference: {fileID: 0}
    - target: {fileID: 404576, guid: 44a93fec55b694342847efc8ce1a73da, type: 2}
      propertyPath: m_RootOrder
      value: 4
      objectReference: {fileID: 0}
    m_RemovedComponents: []
  m_ParentPrefab: {fileID: 100100000, guid: 44a93fec55b694342847efc8ce1a73da, type: 2}
  m_RootGameObject: {fileID: 2124699850}
  m_IsPrefabParent: 0
--- !u!4 &1831922107
Transform:
  m_ObjectHideFlags: 0
  m_PrefabParentObject: {fileID: 404576, guid: 44a93fec55b694342847efc8ce1a73da, type: 2}
  m_PrefabInternal: {fileID: 1831922106}
  m_GameObject: {fileID: 2124699850}
  m_LocalRotation: {x: 0, y: 0, z: 0, w: 1}
  m_LocalPosition: {x: 0, y: 0.22, z: -37.69}
  m_LocalScale: {x: 1, y: 1, z: 1}
  m_Children: []
  m_Father: {fileID: 589362926}
  m_RootOrder: 4
  m_LocalEulerAnglesHint: {x: 0, y: 0, z: 0}
--- !u!1 &1851991127
GameObject:
  m_ObjectHideFlags: 0
  m_PrefabParentObject: {fileID: 190654, guid: f80320821301293469fd7263b5c778a3, type: 2}
  m_PrefabInternal: {fileID: 403079615}
  serializedVersion: 5
  m_Component:
  - component: {fileID: 403079616}
  - component: {fileID: 1851991129}
  - component: {fileID: 1851991128}
  m_Layer: 0
  m_Name: Grass3D_02
  m_TagString: Untagged
  m_Icon: {fileID: 0}
  m_NavMeshLayer: 0
  m_StaticEditorFlags: 0
  m_IsActive: 1
--- !u!23 &1851991128
MeshRenderer:
  m_ObjectHideFlags: 0
  m_PrefabParentObject: {fileID: 2371580, guid: f80320821301293469fd7263b5c778a3,
    type: 2}
  m_PrefabInternal: {fileID: 403079615}
  m_GameObject: {fileID: 1851991127}
  m_Enabled: 1
  m_CastShadows: 1
  m_ReceiveShadows: 1
  m_DynamicOccludee: 1
  m_MotionVectors: 1
  m_LightProbeUsage: 1
  m_ReflectionProbeUsage: 1
  m_Materials:
  - {fileID: 2100000, guid: 05244cd1770371546991e982a45ce03e, type: 2}
  m_StaticBatchInfo:
    firstSubMesh: 0
    subMeshCount: 0
  m_StaticBatchRoot: {fileID: 0}
  m_ProbeAnchor: {fileID: 0}
  m_LightProbeVolumeOverride: {fileID: 0}
  m_ScaleInLightmap: 1
  m_PreserveUVs: 0
  m_IgnoreNormalsForChartDetection: 0
  m_ImportantGI: 0
  m_StitchLightmapSeams: 0
  m_SelectedEditorRenderState: 3
  m_MinimumChartSize: 4
  m_AutoUVMaxDistance: 0.5
  m_AutoUVMaxAngle: 89
  m_LightmapParameters: {fileID: 0}
  m_SortingLayerID: 0
  m_SortingLayer: 0
  m_SortingOrder: 0
--- !u!33 &1851991129
MeshFilter:
  m_ObjectHideFlags: 0
  m_PrefabParentObject: {fileID: 3380558, guid: f80320821301293469fd7263b5c778a3,
    type: 2}
  m_PrefabInternal: {fileID: 403079615}
  m_GameObject: {fileID: 1851991127}
  m_Mesh: {fileID: 4300000, guid: 6bd82a85bbdae2b41982fb74a3fdb0ec, type: 3}
--- !u!1 &1883346401
GameObject:
  m_ObjectHideFlags: 0
  m_PrefabParentObject: {fileID: 193358, guid: 86be09d8335b8fe4793de59175aeb6a0, type: 2}
  m_PrefabInternal: {fileID: 2050287678}
  serializedVersion: 5
  m_Component:
  - component: {fileID: 2050287679}
  - component: {fileID: 1883346403}
  - component: {fileID: 1883346402}
  m_Layer: 0
  m_Name: Vine_1
  m_TagString: Untagged
  m_Icon: {fileID: 0}
  m_NavMeshLayer: 0
  m_StaticEditorFlags: 0
  m_IsActive: 1
--- !u!23 &1883346402
MeshRenderer:
  m_ObjectHideFlags: 0
  m_PrefabParentObject: {fileID: 2394944, guid: 86be09d8335b8fe4793de59175aeb6a0,
    type: 2}
  m_PrefabInternal: {fileID: 2050287678}
  m_GameObject: {fileID: 1883346401}
  m_Enabled: 1
  m_CastShadows: 1
  m_ReceiveShadows: 1
  m_DynamicOccludee: 1
  m_MotionVectors: 1
  m_LightProbeUsage: 1
  m_ReflectionProbeUsage: 1
  m_Materials:
  - {fileID: 2100000, guid: 05244cd1770371546991e982a45ce03e, type: 2}
  m_StaticBatchInfo:
    firstSubMesh: 0
    subMeshCount: 0
  m_StaticBatchRoot: {fileID: 0}
  m_ProbeAnchor: {fileID: 0}
  m_LightProbeVolumeOverride: {fileID: 0}
  m_ScaleInLightmap: 1
  m_PreserveUVs: 0
  m_IgnoreNormalsForChartDetection: 0
  m_ImportantGI: 0
  m_StitchLightmapSeams: 0
  m_SelectedEditorRenderState: 3
  m_MinimumChartSize: 4
  m_AutoUVMaxDistance: 0.5
  m_AutoUVMaxAngle: 89
  m_LightmapParameters: {fileID: 0}
  m_SortingLayerID: 0
  m_SortingLayer: 0
  m_SortingOrder: 0
--- !u!33 &1883346403
MeshFilter:
  m_ObjectHideFlags: 0
  m_PrefabParentObject: {fileID: 3310218, guid: 86be09d8335b8fe4793de59175aeb6a0,
    type: 2}
  m_PrefabInternal: {fileID: 2050287678}
  m_GameObject: {fileID: 1883346401}
  m_Mesh: {fileID: 4300000, guid: d06b7af439d9f494fb07e779c82e8540, type: 3}
--- !u!1 &1891558877
GameObject:
  m_ObjectHideFlags: 0
  m_PrefabParentObject: {fileID: 182038, guid: 87475ce363e4bcf40b5791256be68f7d, type: 2}
  m_PrefabInternal: {fileID: 423877774}
  serializedVersion: 5
  m_Component:
  - component: {fileID: 423877775}
  - component: {fileID: 1891558879}
  - component: {fileID: 1891558878}
  m_Layer: 0
  m_Name: TreeType1_07
  m_TagString: Untagged
  m_Icon: {fileID: 0}
  m_NavMeshLayer: 0
  m_StaticEditorFlags: 0
  m_IsActive: 1
--- !u!23 &1891558878
MeshRenderer:
  m_ObjectHideFlags: 0
  m_PrefabParentObject: {fileID: 2336418, guid: 87475ce363e4bcf40b5791256be68f7d,
    type: 2}
  m_PrefabInternal: {fileID: 423877774}
  m_GameObject: {fileID: 1891558877}
  m_Enabled: 1
  m_CastShadows: 1
  m_ReceiveShadows: 1
  m_DynamicOccludee: 1
  m_MotionVectors: 1
  m_LightProbeUsage: 1
  m_ReflectionProbeUsage: 1
  m_Materials:
  - {fileID: 2100000, guid: 05244cd1770371546991e982a45ce03e, type: 2}
  m_StaticBatchInfo:
    firstSubMesh: 0
    subMeshCount: 0
  m_StaticBatchRoot: {fileID: 0}
  m_ProbeAnchor: {fileID: 0}
  m_LightProbeVolumeOverride: {fileID: 0}
  m_ScaleInLightmap: 1
  m_PreserveUVs: 0
  m_IgnoreNormalsForChartDetection: 0
  m_ImportantGI: 0
  m_StitchLightmapSeams: 0
  m_SelectedEditorRenderState: 3
  m_MinimumChartSize: 4
  m_AutoUVMaxDistance: 0.5
  m_AutoUVMaxAngle: 89
  m_LightmapParameters: {fileID: 0}
  m_SortingLayerID: 0
  m_SortingLayer: 0
  m_SortingOrder: 0
--- !u!33 &1891558879
MeshFilter:
  m_ObjectHideFlags: 0
  m_PrefabParentObject: {fileID: 3303530, guid: 87475ce363e4bcf40b5791256be68f7d,
    type: 2}
  m_PrefabInternal: {fileID: 423877774}
  m_GameObject: {fileID: 1891558877}
  m_Mesh: {fileID: 4300000, guid: 16c76b630cd3d70498dc4648690ec093, type: 3}
--- !u!1 &1997005706
GameObject:
  m_ObjectHideFlags: 0
  m_PrefabParentObject: {fileID: 102972, guid: 0240838b56fa8744abdedafcb5a80ebb, type: 2}
  m_PrefabInternal: {fileID: 2060615660}
  serializedVersion: 5
  m_Component:
  - component: {fileID: 2060615661}
  - component: {fileID: 1997005708}
  - component: {fileID: 1997005707}
  m_Layer: 0
  m_Name: Banana
  m_TagString: Untagged
  m_Icon: {fileID: 0}
  m_NavMeshLayer: 0
  m_StaticEditorFlags: 0
  m_IsActive: 1
--- !u!23 &1997005707
MeshRenderer:
  m_ObjectHideFlags: 0
  m_PrefabParentObject: {fileID: 2330638, guid: 0240838b56fa8744abdedafcb5a80ebb,
    type: 2}
  m_PrefabInternal: {fileID: 2060615660}
  m_GameObject: {fileID: 1997005706}
  m_Enabled: 1
  m_CastShadows: 1
  m_ReceiveShadows: 1
  m_DynamicOccludee: 1
  m_MotionVectors: 1
  m_LightProbeUsage: 1
  m_ReflectionProbeUsage: 1
  m_Materials:
  - {fileID: 2100000, guid: 05244cd1770371546991e982a45ce03e, type: 2}
  m_StaticBatchInfo:
    firstSubMesh: 0
    subMeshCount: 0
  m_StaticBatchRoot: {fileID: 0}
  m_ProbeAnchor: {fileID: 0}
  m_LightProbeVolumeOverride: {fileID: 0}
  m_ScaleInLightmap: 1
  m_PreserveUVs: 0
  m_IgnoreNormalsForChartDetection: 0
  m_ImportantGI: 0
  m_StitchLightmapSeams: 0
  m_SelectedEditorRenderState: 3
  m_MinimumChartSize: 4
  m_AutoUVMaxDistance: 0.5
  m_AutoUVMaxAngle: 89
  m_LightmapParameters: {fileID: 0}
  m_SortingLayerID: 0
  m_SortingLayer: 0
  m_SortingOrder: 0
--- !u!33 &1997005708
MeshFilter:
  m_ObjectHideFlags: 0
  m_PrefabParentObject: {fileID: 3352968, guid: 0240838b56fa8744abdedafcb5a80ebb,
    type: 2}
  m_PrefabInternal: {fileID: 2060615660}
  m_GameObject: {fileID: 1997005706}
  m_Mesh: {fileID: 4300000, guid: f4876d71e0dcdfa4d95578c68ba7352d, type: 3}
--- !u!1 &2030871482
GameObject:
  m_ObjectHideFlags: 0
  m_PrefabParentObject: {fileID: 0}
  m_PrefabInternal: {fileID: 0}
  serializedVersion: 5
  m_Component:
  - component: {fileID: 2030871484}
  - component: {fileID: 2030871483}
  m_Layer: 0
  m_Name: Directional Light
  m_TagString: Untagged
  m_Icon: {fileID: 0}
  m_NavMeshLayer: 0
  m_StaticEditorFlags: 0
  m_IsActive: 1
--- !u!108 &2030871483
Light:
  m_ObjectHideFlags: 0
  m_PrefabParentObject: {fileID: 0}
  m_PrefabInternal: {fileID: 0}
  m_GameObject: {fileID: 2030871482}
  m_Enabled: 1
  serializedVersion: 8
  m_Type: 1
  m_Color: {r: 1, g: 0.95686275, b: 0.8392157, a: 1}
  m_Intensity: 1
  m_Range: 10
  m_SpotAngle: 30
  m_CookieSize: 10
  m_Shadows:
    m_Type: 2
    m_Resolution: -1
    m_CustomResolution: -1
    m_Strength: 1
    m_Bias: 0.05
    m_NormalBias: 0
    m_NearPlane: 0.2
  m_Cookie: {fileID: 0}
  m_DrawHalo: 0
  m_Flare: {fileID: 0}
  m_RenderMode: 0
  m_CullingMask:
    serializedVersion: 2
    m_Bits: 4294967295
  m_Lightmapping: 4
  m_AreaSize: {x: 1, y: 1}
  m_BounceIntensity: 1
  m_ColorTemperature: 6570
  m_UseColorTemperature: 0
  m_ShadowRadius: 0
  m_ShadowAngle: 0
--- !u!4 &2030871484
Transform:
  m_ObjectHideFlags: 0
  m_PrefabParentObject: {fileID: 0}
  m_PrefabInternal: {fileID: 0}
  m_GameObject: {fileID: 2030871482}
  m_LocalRotation: {x: 0.40821794, y: -0.23456973, z: 0.109381676, w: 0.87542605}
  m_LocalPosition: {x: 0, y: 3, z: 0}
  m_LocalScale: {x: 1, y: 1, z: 1}
  m_Children: []
  m_Father: {fileID: 0}
  m_RootOrder: 3
  m_LocalEulerAnglesHint: {x: 0, y: 0, z: 0}
--- !u!1001 &2050287678
Prefab:
  m_ObjectHideFlags: 0
  serializedVersion: 2
  m_Modification:
    m_TransformParent: {fileID: 589362926}
    m_Modifications:
    - target: {fileID: 416684, guid: 86be09d8335b8fe4793de59175aeb6a0, type: 2}
      propertyPath: m_LocalPosition.x
      value: 0
      objectReference: {fileID: 0}
    - target: {fileID: 416684, guid: 86be09d8335b8fe4793de59175aeb6a0, type: 2}
      propertyPath: m_LocalPosition.y
      value: 0
      objectReference: {fileID: 0}
    - target: {fileID: 416684, guid: 86be09d8335b8fe4793de59175aeb6a0, type: 2}
      propertyPath: m_LocalPosition.z
      value: 31.6499996
      objectReference: {fileID: 0}
    - target: {fileID: 416684, guid: 86be09d8335b8fe4793de59175aeb6a0, type: 2}
      propertyPath: m_LocalRotation.x
      value: 0
      objectReference: {fileID: 0}
    - target: {fileID: 416684, guid: 86be09d8335b8fe4793de59175aeb6a0, type: 2}
      propertyPath: m_LocalRotation.y
      value: 0
      objectReference: {fileID: 0}
    - target: {fileID: 416684, guid: 86be09d8335b8fe4793de59175aeb6a0, type: 2}
      propertyPath: m_LocalRotation.z
      value: 0
      objectReference: {fileID: 0}
    - target: {fileID: 416684, guid: 86be09d8335b8fe4793de59175aeb6a0, type: 2}
      propertyPath: m_LocalRotation.w
      value: 1
      objectReference: {fileID: 0}
    - target: {fileID: 416684, guid: 86be09d8335b8fe4793de59175aeb6a0, type: 2}
      propertyPath: m_RootOrder
      value: 0
      objectReference: {fileID: 0}
    m_RemovedComponents: []
  m_ParentPrefab: {fileID: 100100000, guid: 86be09d8335b8fe4793de59175aeb6a0, type: 2}
  m_RootGameObject: {fileID: 1883346401}
  m_IsPrefabParent: 0
--- !u!4 &2050287679
Transform:
  m_ObjectHideFlags: 0
  m_PrefabParentObject: {fileID: 416684, guid: 86be09d8335b8fe4793de59175aeb6a0, type: 2}
  m_PrefabInternal: {fileID: 2050287678}
  m_GameObject: {fileID: 1883346401}
  m_LocalRotation: {x: 0, y: 0, z: 0, w: 1}
  m_LocalPosition: {x: 0, y: 0, z: 31.65}
  m_LocalScale: {x: 1, y: 1, z: 1}
  m_Children: []
  m_Father: {fileID: 589362926}
  m_RootOrder: 0
  m_LocalEulerAnglesHint: {x: 0, y: 0, z: 0}
--- !u!1001 &2056280492
Prefab:
  m_ObjectHideFlags: 0
  serializedVersion: 2
  m_Modification:
    m_TransformParent: {fileID: 589362926}
    m_Modifications:
    - target: {fileID: 496406, guid: 084ccf207a3a8a04ab5fa4d0cb470c55, type: 2}
      propertyPath: m_LocalPosition.x
      value: 0
      objectReference: {fileID: 0}
    - target: {fileID: 496406, guid: 084ccf207a3a8a04ab5fa4d0cb470c55, type: 2}
      propertyPath: m_LocalPosition.y
      value: .639999986
      objectReference: {fileID: 0}
    - target: {fileID: 496406, guid: 084ccf207a3a8a04ab5fa4d0cb470c55, type: 2}
      propertyPath: m_LocalPosition.z
      value: -23.0100002
      objectReference: {fileID: 0}
    - target: {fileID: 496406, guid: 084ccf207a3a8a04ab5fa4d0cb470c55, type: 2}
      propertyPath: m_LocalRotation.x
      value: 0
      objectReference: {fileID: 0}
    - target: {fileID: 496406, guid: 084ccf207a3a8a04ab5fa4d0cb470c55, type: 2}
      propertyPath: m_LocalRotation.y
      value: 0
      objectReference: {fileID: 0}
    - target: {fileID: 496406, guid: 084ccf207a3a8a04ab5fa4d0cb470c55, type: 2}
      propertyPath: m_LocalRotation.z
      value: 0
      objectReference: {fileID: 0}
    - target: {fileID: 496406, guid: 084ccf207a3a8a04ab5fa4d0cb470c55, type: 2}
      propertyPath: m_LocalRotation.w
      value: 1
      objectReference: {fileID: 0}
    - target: {fileID: 496406, guid: 084ccf207a3a8a04ab5fa4d0cb470c55, type: 2}
      propertyPath: m_RootOrder
      value: 6
      objectReference: {fileID: 0}
    m_RemovedComponents: []
  m_ParentPrefab: {fileID: 100100000, guid: 084ccf207a3a8a04ab5fa4d0cb470c55, type: 2}
  m_RootGameObject: {fileID: 77724605}
  m_IsPrefabParent: 0
--- !u!4 &2056280493
Transform:
  m_ObjectHideFlags: 0
  m_PrefabParentObject: {fileID: 496406, guid: 084ccf207a3a8a04ab5fa4d0cb470c55, type: 2}
  m_PrefabInternal: {fileID: 2056280492}
  m_GameObject: {fileID: 77724605}
  m_LocalRotation: {x: 0, y: 0, z: 0, w: 1}
  m_LocalPosition: {x: 0, y: 0.64, z: -23.01}
  m_LocalScale: {x: 1, y: 1, z: 1}
  m_Children: []
  m_Father: {fileID: 589362926}
  m_RootOrder: 6
  m_LocalEulerAnglesHint: {x: 0, y: 0, z: 0}
--- !u!1001 &2060615660
Prefab:
  m_ObjectHideFlags: 0
  serializedVersion: 2
  m_Modification:
    m_TransformParent: {fileID: 589362926}
    m_Modifications:
    - target: {fileID: 492570, guid: 0240838b56fa8744abdedafcb5a80ebb, type: 2}
      propertyPath: m_LocalPosition.x
      value: 0
      objectReference: {fileID: 0}
    - target: {fileID: 492570, guid: 0240838b56fa8744abdedafcb5a80ebb, type: 2}
      propertyPath: m_LocalPosition.y
      value: 0
      objectReference: {fileID: 0}
    - target: {fileID: 492570, guid: 0240838b56fa8744abdedafcb5a80ebb, type: 2}
      propertyPath: m_LocalPosition.z
      value: 60.8199997
      objectReference: {fileID: 0}
    - target: {fileID: 492570, guid: 0240838b56fa8744abdedafcb5a80ebb, type: 2}
      propertyPath: m_LocalRotation.x
      value: 0
      objectReference: {fileID: 0}
    - target: {fileID: 492570, guid: 0240838b56fa8744abdedafcb5a80ebb, type: 2}
      propertyPath: m_LocalRotation.y
      value: 0
      objectReference: {fileID: 0}
    - target: {fileID: 492570, guid: 0240838b56fa8744abdedafcb5a80ebb, type: 2}
      propertyPath: m_LocalRotation.z
      value: 0
      objectReference: {fileID: 0}
    - target: {fileID: 492570, guid: 0240838b56fa8744abdedafcb5a80ebb, type: 2}
      propertyPath: m_LocalRotation.w
      value: 1
      objectReference: {fileID: 0}
    - target: {fileID: 492570, guid: 0240838b56fa8744abdedafcb5a80ebb, type: 2}
      propertyPath: m_RootOrder
      value: 21
      objectReference: {fileID: 0}
    m_RemovedComponents: []
  m_ParentPrefab: {fileID: 100100000, guid: 0240838b56fa8744abdedafcb5a80ebb, type: 2}
  m_RootGameObject: {fileID: 1997005706}
  m_IsPrefabParent: 0
--- !u!4 &2060615661
Transform:
  m_ObjectHideFlags: 0
  m_PrefabParentObject: {fileID: 492570, guid: 0240838b56fa8744abdedafcb5a80ebb, type: 2}
  m_PrefabInternal: {fileID: 2060615660}
  m_GameObject: {fileID: 1997005706}
  m_LocalRotation: {x: 0, y: 0, z: 0, w: 1}
  m_LocalPosition: {x: 0, y: 0, z: 60.82}
  m_LocalScale: {x: 0.46668103, y: 0.46668103, z: 0.46668103}
  m_Children: []
  m_Father: {fileID: 589362926}
  m_RootOrder: 21
  m_LocalEulerAnglesHint: {x: 0, y: 0, z: 0}
--- !u!1 &2068415588
GameObject:
  m_ObjectHideFlags: 0
  m_PrefabParentObject: {fileID: 188242, guid: 7572b8494dca61844ae502ca4d47915f, type: 2}
  m_PrefabInternal: {fileID: 1634122547}
  serializedVersion: 5
  m_Component:
  - component: {fileID: 1634122548}
  - component: {fileID: 2068415590}
  - component: {fileID: 2068415589}
  m_Layer: 0
  m_Name: TreeType2_06
  m_TagString: Untagged
  m_Icon: {fileID: 0}
  m_NavMeshLayer: 0
  m_StaticEditorFlags: 0
  m_IsActive: 1
--- !u!23 &2068415589
MeshRenderer:
  m_ObjectHideFlags: 0
  m_PrefabParentObject: {fileID: 2371874, guid: 7572b8494dca61844ae502ca4d47915f,
    type: 2}
  m_PrefabInternal: {fileID: 1634122547}
  m_GameObject: {fileID: 2068415588}
  m_Enabled: 1
  m_CastShadows: 1
  m_ReceiveShadows: 1
  m_DynamicOccludee: 1
  m_MotionVectors: 1
  m_LightProbeUsage: 1
  m_ReflectionProbeUsage: 1
  m_Materials:
  - {fileID: 2100000, guid: 05244cd1770371546991e982a45ce03e, type: 2}
  m_StaticBatchInfo:
    firstSubMesh: 0
    subMeshCount: 0
  m_StaticBatchRoot: {fileID: 0}
  m_ProbeAnchor: {fileID: 0}
  m_LightProbeVolumeOverride: {fileID: 0}
  m_ScaleInLightmap: 1
  m_PreserveUVs: 0
  m_IgnoreNormalsForChartDetection: 0
  m_ImportantGI: 0
  m_StitchLightmapSeams: 0
  m_SelectedEditorRenderState: 3
  m_MinimumChartSize: 4
  m_AutoUVMaxDistance: 0.5
  m_AutoUVMaxAngle: 89
  m_LightmapParameters: {fileID: 0}
  m_SortingLayerID: 0
  m_SortingLayer: 0
  m_SortingOrder: 0
--- !u!33 &2068415590
MeshFilter:
  m_ObjectHideFlags: 0
  m_PrefabParentObject: {fileID: 3303948, guid: 7572b8494dca61844ae502ca4d47915f,
    type: 2}
  m_PrefabInternal: {fileID: 1634122547}
  m_GameObject: {fileID: 2068415588}
  m_Mesh: {fileID: 4300000, guid: 9da7da74353934d45a87d23591c51c1f, type: 3}
--- !u!1001 &2106915930
Prefab:
  m_ObjectHideFlags: 0
  serializedVersion: 2
  m_Modification:
    m_TransformParent: {fileID: 589362926}
    m_Modifications:
    - target: {fileID: 429768, guid: 35047f5db11d8804f941830d7855dcf9, type: 2}
      propertyPath: m_LocalPosition.x
      value: 0
      objectReference: {fileID: 0}
    - target: {fileID: 429768, guid: 35047f5db11d8804f941830d7855dcf9, type: 2}
      propertyPath: m_LocalPosition.y
      value: 0
      objectReference: {fileID: 0}
    - target: {fileID: 429768, guid: 35047f5db11d8804f941830d7855dcf9, type: 2}
      propertyPath: m_LocalPosition.z
      value: 41.8100014
      objectReference: {fileID: 0}
    - target: {fileID: 429768, guid: 35047f5db11d8804f941830d7855dcf9, type: 2}
      propertyPath: m_LocalRotation.x
      value: 0
      objectReference: {fileID: 0}
    - target: {fileID: 429768, guid: 35047f5db11d8804f941830d7855dcf9, type: 2}
      propertyPath: m_LocalRotation.y
      value: 0
      objectReference: {fileID: 0}
    - target: {fileID: 429768, guid: 35047f5db11d8804f941830d7855dcf9, type: 2}
      propertyPath: m_LocalRotation.z
      value: 0
      objectReference: {fileID: 0}
    - target: {fileID: 429768, guid: 35047f5db11d8804f941830d7855dcf9, type: 2}
      propertyPath: m_LocalRotation.w
      value: 1
      objectReference: {fileID: 0}
    - target: {fileID: 429768, guid: 35047f5db11d8804f941830d7855dcf9, type: 2}
      propertyPath: m_RootOrder
      value: 11
      objectReference: {fileID: 0}
    m_RemovedComponents: []
  m_ParentPrefab: {fileID: 100100000, guid: 35047f5db11d8804f941830d7855dcf9, type: 2}
  m_RootGameObject: {fileID: 1798838367}
  m_IsPrefabParent: 0
--- !u!4 &2106915931
Transform:
  m_ObjectHideFlags: 0
  m_PrefabParentObject: {fileID: 429768, guid: 35047f5db11d8804f941830d7855dcf9, type: 2}
  m_PrefabInternal: {fileID: 2106915930}
  m_GameObject: {fileID: 1798838367}
  m_LocalRotation: {x: 0, y: 0, z: 0, w: 1}
  m_LocalPosition: {x: 0, y: 0, z: 41.81}
  m_LocalScale: {x: 1, y: 1, z: 1}
  m_Children: []
  m_Father: {fileID: 589362926}
  m_RootOrder: 11
  m_LocalEulerAnglesHint: {x: 0, y: 0, z: 0}
--- !u!1 &2124699850
GameObject:
  m_ObjectHideFlags: 0
  m_PrefabParentObject: {fileID: 151938, guid: 44a93fec55b694342847efc8ce1a73da, type: 2}
  m_PrefabInternal: {fileID: 1831922106}
  serializedVersion: 5
  m_Component:
  - component: {fileID: 1831922107}
  - component: {fileID: 2124699852}
  - component: {fileID: 2124699851}
  m_Layer: 0
  m_Name: Terrain_02
  m_TagString: Untagged
  m_Icon: {fileID: 0}
  m_NavMeshLayer: 0
  m_StaticEditorFlags: 0
  m_IsActive: 1
--- !u!23 &2124699851
MeshRenderer:
  m_ObjectHideFlags: 0
  m_PrefabParentObject: {fileID: 2354174, guid: 44a93fec55b694342847efc8ce1a73da,
    type: 2}
  m_PrefabInternal: {fileID: 1831922106}
  m_GameObject: {fileID: 2124699850}
  m_Enabled: 1
  m_CastShadows: 1
  m_ReceiveShadows: 1
  m_DynamicOccludee: 1
  m_MotionVectors: 1
  m_LightProbeUsage: 1
  m_ReflectionProbeUsage: 1
  m_Materials:
  - {fileID: 2100000, guid: a2c8ddb5ea433104a9639539ee9c2e51, type: 2}
  m_StaticBatchInfo:
    firstSubMesh: 0
    subMeshCount: 0
  m_StaticBatchRoot: {fileID: 0}
  m_ProbeAnchor: {fileID: 0}
  m_LightProbeVolumeOverride: {fileID: 0}
  m_ScaleInLightmap: 1
  m_PreserveUVs: 0
  m_IgnoreNormalsForChartDetection: 0
  m_ImportantGI: 0
  m_StitchLightmapSeams: 0
  m_SelectedEditorRenderState: 3
  m_MinimumChartSize: 4
  m_AutoUVMaxDistance: 0.5
  m_AutoUVMaxAngle: 89
  m_LightmapParameters: {fileID: 0}
  m_SortingLayerID: 0
  m_SortingLayer: 0
  m_SortingOrder: 0
--- !u!33 &2124699852
MeshFilter:
  m_ObjectHideFlags: 0
  m_PrefabParentObject: {fileID: 3340062, guid: 44a93fec55b694342847efc8ce1a73da,
    type: 2}
  m_PrefabInternal: {fileID: 1831922106}
  m_GameObject: {fileID: 2124699850}
  m_Mesh: {fileID: 4300000, guid: b4d813fcda08d534a8767babe46e3c1d, type: 3}
